
{
	"spaces" : 
	[
		
		{
			"camera" : 
			{
				"rotation" : 0,
				"size" : 8,
				"translation" : 
				{
					"x" : -11,
					"y" : -1
				}
			},
			"entities" : 
			[
				
				{
					"components" : 
					[
						
						{
							"name" : "ParticleEmitter",
							"properties" : 
							{
								"active" : false,
								"emitCount" : 125,
								"emitRate" : 1000,
								"maxEndColor" : 
								{
									"a" : 0.5882353186607361,
									"b" : 0.3058823645114899,
									"g" : 0.3058823645114899,
									"r" : 0.3058823645114899
								},
								"maxLifeTime," : 0.25,
								"maxStartColor" : 
								{
									"a" : 1,
									"b" : 0.6235294342041016,
									"g" : 0.6235294342041016,
									"r" : 0.6235294342041016
								},
								"maxVelocity" : 
								{
									"x" : 4,
									"y" : 3
								},
								"minEndColor" : 
								{
									"a" : 0.5882353186607361,
									"b" : 0.3058823645114899,
									"g" : 0.3058823645114899,
									"r" : 0.3058823645114899
								},
								"minLifeTime," : 0.25,
								"minStartColor" : 
								{
									"a" : 1,
									"b" : 0.6235294342041016,
									"g" : 0.6235294342041016,
									"r" : 0.6235294342041016
								},
								"minVelocity" : 
								{
									"x" : -4,
									"y" : -0.5
								},
								"numParticles" : 1000,
								"particleScale" : 
								{
									"x" : 0.25,
									"y" : 0.25
								}
							}
						}
					],
					"linkID" : 203,
					"name" : "Explosion",
					"transform" : 
					{
						"rotation" : 0,
						"scale" : 
						{
							"x" : 1,
							"y" : 1
						},
						"translation" : 
						{
							"x" : -11.16813278198242,
							"y" : -2.689239263534546
						}
					}
				},
				
				{
					"components" : 
					[
						
						{
							"name" : "ParticleEmitter",
							"properties" : 
							{
								"active" : false,
								"emitCount" : 15,
								"emitRate" : 1000,
								"maxEndColor" : 
								{
									"a" : 1,
									"b" : 0,
									"g" : 1,
									"r" : 1
								},
								"maxLifeTime," : 0.25,
								"maxVelocity" : 
								{
									"x" : -3,
									"y" : 3
								},
								"minEndColor" : 
								{
									"a" : 1,
									"b" : 0,
									"g" : 0,
									"r" : 1
								},
								"minLifeTime," : 0.25,
								"minVelocity" : 
								{
									"x" : -10,
									"y" : -3
								},
								"particleScale" : 
								{
									"x" : 0.1000000014901161,
									"y" : 0.1000000014901161
								}
							}
						}
					],
					"linkID" : 204,
					"name" : "PunchParticle",
					"transform" : 
					{
						"rotation" : 0,
						"scale" : 
						{
							"x" : 1,
							"y" : 1
						},
						"translation" : 
						{
							"x" : -12.67035484313965,
							"y" : -2.459078311920166
						}
					}
				},
				
				{
					"components" : 
					[
						
						{
							"name" : "Sprite",
							"properties" : 
							{
								"image" : "generatorSpawner_1"
							}
						}
					],
					"linkID" : 207,
					"name" : "unnamed_2",
					"transform" : 
					{
						"rotation" : 0,
						"scale" : 
						{
							"x" : 2,
							"y" : 2
						},
						"translation" : 
						{
							"x" : -7.927765846252441,
							"y" : -2.156049966812134
						}
					}
				},
				
				{
					"components" : 
					[
						
						{
							"name" : "ParticleEmitter",
							"properties" : 
							{
								"acceleration" : 
								{
									"x" : 1,
									"y" : 0
								},
								"maxEndColor" : 
								{
									"a" : 0.3921568989753723,
									"b" : 0.6352941393852234,
									"g" : 0.6352941393852234,
									"r" : 0.6352941393852234
								},
								"maxStartColor" : 
								{
									"a" : 1,
									"b" : 0.3490196168422699,
									"g" : 0.3490196168422699,
									"r" : 0.3490196168422699
								},
								"maxVelocity" : 
								{
									"x" : 0.2000000029802322,
									"y" : 1
								},
								"minEndColor" : 
								{
									"a" : 0.3921568989753723,
									"b" : 0.6352941393852234,
									"g" : 0.6352941393852234,
									"r" : 0.6352941393852234
								},
								"minStartColor" : 
								{
									"a" : 1,
									"b" : 0.3490196168422699,
									"g" : 0.3490196168422699,
									"r" : 0.3490196168422699
								},
								"minVelocity" : 
								{
									"x" : 0,
									"y" : 0.5
								},
								"particleScale" : 
								{
									"x" : 0.25,
									"y" : 0.25
								}
							}
						}
					],
					"linkID" : 208,
					"name" : "SmokeParticle",
					"transform" : 
					{
						"rotation" : 0,
						"scale" : 
						{
							"x" : 1,
							"y" : 1
						},
						"translation" : 
						{
							"x" : -7.545732498168945,
							"y" : -1.684977650642395
						}
					}
				},
				
				{
					"archetype" : "SmokeParticle",
					"linkID" : 209,
					"name" : "unnamed_4",
					"transform" : 
					{
						"rotation" : 0,
						"scale" : 
						{
							"x" : 1,
							"y" : 1
						},
						"translation" : 
						{
							"x" : -8.212464332580566,
							"y" : -1.861189842224121
						}
					}
				},
				
				{
					"components" : 
					[
						
						{
							"name" : "ParticleEmitter",
							"properties" : 
							{
								"active" : false,
								"emitCount" : 50,
								"height," : 3,
								"maxEndColor" : 
								{
									"a" : 1,
									"b" : 0,
									"g" : 1,
									"r" : 1
								},
								"maxStartColor" : 
								{
									"a" : 1,
									"b" : 1,
									"g" : 0.2274509966373444,
									"r" : 0
								},
								"maxVelocity" : 
								{
									"x" : 0.5,
									"y" : 0
								},
								"minEndColor" : 
								{
									"a" : 1,
									"b" : 0,
									"g" : 1,
									"r" : 1
								},
								"minStartColor" : 
								{
									"a" : 1,
									"b" : 1,
									"g" : 0.2274509966373444,
									"r" : 0
								},
								"minVelocity" : 
								{
									"x" : -0.5,
									"y" : 0
								},
								"particleScale" : 
								{
									"x" : 0.25,
									"y" : 0.25
								},
								"spawnType" : 2,
								"width," : 0.5
							}
						}
					],
					"linkID" : 210,
					"name" : "unnamed_5",
					"transform" : 
					{
						"rotation" : 0,
						"scale" : 
						{
							"x" : 1,
							"y" : 1
						},
						"translation" : 
						{
							"x" : -13.31727981567383,
							"y" : 0.5558068752288818
						}
					}
				}
			],
			"name" : "main"
		}
	]
}