
{
	"spaces" : 
	[
		
		{
			"parallax":
			{
				"layers":
				[
					[ "rooftops_01", 0.30, true ],
					[ "rooftops_02", 0.08, true ],
					[ "rooftops_03", 0.04, true ],
					[ "omniarch_building", 0.015, false ],
					[ "rooftops_04", 0.011, true ],
					[ "rooftops_05", 0, true ]
				],
				"offset": 0
			},
			"camera" : 
			{
				"rotation" : 0,
				"size" : 8,
				"translation" : 
				{
					"x" : -11,
					"y" : -1
				}
			},
			"entities" : 
			[
				
				{
					"archetype" : "Player",
					"components" : 
					[
						
						{
							"name" : "PlayerController",
							"properties" : 
							{
								"punchForce" : 0.2000000029802322
							}
						}
					],
					"linkID" : 1,
					"name" : "Player",
					"transform" : 
					{
						"rotation" : 0,
						"scale" : 
						{
							"x" : 1,
							"y" : 1
						},
						"translation" : 
						{
							"x" : -16,
							"y" : -2
						}
					}
				},
				{
					"archetype" : "SoundEffect",
					"components" : 
					[
						
						{
							"name" : "SoundEffect",
							"properties" : 
							{
								"soundEffect" : "event:/robot-damageget"
							}
						}
					],
					"linkID" : 455,
					"name" : "EnemyDamageSound",
					"transform" : 
					{
						"rotation" : 0,
						"scale" : 
						{
							"x" : 1,
							"y" : 1
						},
						"translation" : 
						{
							"x" : -17,
							"y" : -1.5
						}
					}
				},
				
				{
					"archetype" : "SoundEffect",
					"components" : 
					[
						
						{
							"name" : "SoundEffect",
							"properties" : 
							{
								"soundEffect" : "event:/enemy-defeat"
							}
						}
					],
					"linkID" : 456,
					"name" : "EnemyDefeatSound",
					"transform" : 
					{
						"rotation" : 0,
						"scale" : 
						{
							"x" : 1,
							"y" : 1
						},
						"translation" : 
						{
							"x" : -17,
							"y" : -1.5
						}
					}
				},
				
				{
					"archetype" : "SoundEffect",
					"components" : 
					[
						
						{
							"name" : "SoundEffect",
							"properties" : 
							{
								"soundEffect" : "event:/break"
							}
						}
					],
					"linkID" : 457,
					"name" : "BreakSound",
					"transform" : 
					{
						"rotation" : 0,
						"scale" : 
						{
							"x" : 1,
							"y" : 1
						},
						"translation" : 
						{
							"x" : -17,
							"y" : -1.5
						}
					}
				},
				
				{
					"archetype" : "GenericTerrain",
					"linkID" : 459,
					"name" : "terrain",
					"transform" : 
					{
						"rotation" : 0,
						"scale" : 
						{
							"x" : 30,
							"y" : 10
						},
						"translation" : 
						{
							"x" : -7,
							"y" : -7.5
						}
					}
				},
				
				{
					"archetype" : "GenericTerrain",
					"linkID" : 460,
					"name" : "terrain",
					"transform" : 
					{
						"rotation" : 0,
						"scale" : 
						{
							"x" : 10,
							"y" : 20
						},
						"translation" : 
						{
							"x" : -27,
							"y" : -1
						}
					}
				},
				
				{
					"archetype" : "GenericTerrain",
					"linkID" : 461,
					"name" : "terrain",
					"transform" : 
					{
						"rotation" : 0,
						"scale" : 
						{
							"x" : 10,
							"y" : 20
						},
						"translation" : 
						{
							"x" : 13,
							"y" : -1
						}
					}
				}
			],
			"name" : "main"
		},
		
		{
			"camera" : 
			{
				"rotation" : 0,
				"size" : 6,
				"translation" : 
				{
					"x" : 0,
					"y" : 0
				}
			},
			"entities" : 
			[
				
				{
					"components" : 
					[
						
						{
							"name" : "MenuController"
						},
						
						{
							"name" : "SoundEmitter",
							"properties" : 
							{
								"affectedByTimeScale" : false
							}
						}
					],
					"linkID" : 30,
					"name" : "MainMenu",
					"transform" : 
					{
						"rotation" : 0,
						"scale" : 
						{
							"x" : 1,
							"y" : 1
						},
						"translation" : 
						{
							"x" : 2,
							"y" : 0
						}
					}
				},
				
				{
					"archetype" : "BackgroundMusic",
					"linkID" : 36,
					"name" : "BackgroundMusic",
					"transform" : 
					{
						"rotation" : 0,
						"scale" : 
						{
							"x" : 1,
							"y" : 1
						},
						"translation" : 
						{
							"x" : 0,
							"y" : 0
						}
					}
				}
			],
			"name" : "ui"
		}
	]
}
