{
  "name": "Antenna1",
  "components":
  [
    {
      "name": "Sprite",
      "properties": {
        "image": "antenna1",
        "color": {
          "r": 1.0,
          "g": 1.0,
          "b": 1.0,
          "a": 1.0
        },
        "depth" : 101
      }
    }
  ]
}
