{
  "name": "ChangeLevelBooth",
  "components":
  [
    {
      "name": "RigidBody",
      "properties": {
        "angularVelocity": 0,
        "static": false,
        "rotationLocked": true,
        "ghost": true,
        "gravityScale": 0,
        "collisionGroup" : 0,
        "bodyPoints": [
          { "x":  0.5, "y":  -0.65 },
          { "x":  0, "y":  -0.65 },
          { "x":  0, "y": -1.1 },
          { "x":  0.5, "y": -1.1 }
        ]
      }
    },
    {
      "name": "ChangeLevelBooth"
    },
    {
      "name" : "Sprite",
      "properties" : 
      {
        "brightness" : 1,
        "glowColor" : 
        {
          "a" : 1,
          "b" : 1,
          "g" : 1,
          "r" : 1
        },
        "glowEnabled" : true,
        "image" : "changeLevelBooth",
        "depth" : 9.4
      }
    },
    {
      "name" : "SoundEmitter"
    },
    {
      "name" : "ParticleEmitter",
      "properties" : 
      {
        "active" : false,
        "emitRate" : 80,
        "emitCount" : 0,
        "maxEndColor" : 
        {
          "a" : 1,
          "b" : 0.86,
          "g" : 0.99,
          "r" : 0.41
        },
        "maxLifeTime," : 0.800000011920929,
        "maxStartColor" : 
        {
          "a" : 1,
          "b" : 0.86,
          "g" : 0.99,
          "r" : 0.41
        },
        "maxVelocity" : 
        {
          "x" : 0,
          "y" : -3
        },
        "minEndColor" : 
        {
          "a" : 1,
          "b" : 0.86,
          "g" : 0.99,
          "r" : 0.41
        },
        "minLifeTime," : 0.5,
        "minStartColor" : 
        {
          "a" : 1,
          "b" : 0.86,
          "g" : 0.99,
          "r" : 0.41
        },
        "minVelocity" : 
        {
          "x" : 0,
          "y" : -1
        },
        "numParticles" : 20,
        "offsetPosition" : 
        {
          "x" : 0,
          "y" : 0.5
        },
        "particleScale" : 
        {
          "x" : 0.3,
          "y" : 0.3
        },
        "spawnType" : 2
      }
    }
  ],
  "transform" : 
  {
    "scale" : 
    {
      "x" : 1.3,
      "y" : 1.3
    }
  }
}
