{
  "name": "GenericSprite",
  "components":
  [
    {
      "name": "Sprite",
      "properties": {
        "image": "_error_full",
        "color": {
          "r": 1.0,
          "g": 1.0,
          "b": 1.0,
          "a": 1.0
        }
      }
    }
  ]
}
