{
  "name": "PoliceChase",
  "components":
  [
    {
      "name": "Sprite",
      "properties": {
        "image": "electric_fence",
        "visible" : false,
        "color": {
          "r": 1.0,
          "g": 1.0,
          "b": 1.0,
          "a": 1.0
        },
        "glowColor" : {
          "a" : 1,
          "b" : 0.0,
          "g" : 0.0,
          "r" : 0.86
        },
        "brightness": 1,
        "glowEnabled": true
      }
    },
    {
      "name": "RigidBody",
      "properties": {
        "angularVelocity": 0,
        "static": false,
        "rotationLocked": true,
        "ghost": true,
        "gravityScale": 0,
        "collisionGroup" : 0,
        "bodyPoints": [
          { "x":  -0.5, "y":  0.5 },
          { "x": -3.0, "y":  0.5 },
          { "x": -3.0, "y": -0.5 },
          { "x":  -0.5, "y": -0.5 }
        ]
      }
    },
    {
      "name" : "HitBoxManager"
    },
    {
      "name" : "Chase"
    },
    {
      "name" : "ParticleEmitter"
    },
    {
      "name" : "SoundEmitter",
      "properties" : {
        "soundCue" : "event:/alarm",
        "looping" : true
      }
    }
  ]
}
