{
  "name": "ShieldEnemy",
  "transform" :
  {
    "scale" :
    {
      "x" : 4,
      "y" : 4
    }
  },
  "components":
  [
    {
      "name": "Sprite",
      "properties": {
        "image": "RiotShield_Idle_01",
        "color": {
          "r": 1.0,
          "g": 1.0,
          "b": 1.0,
          "a": 1.0
        },
        "glowColor" : {
          "a" : 1,
          "b" : 0.0,
          "g" : 0.0,
          "r" : 0.86
        },
        "brightness": 1,
        "glowEnabled": true,
        "depth" : 50
      }
    },
    {
      "name": "BloomEffect",
      "properties": {
        "threshold": 0
      }
    },

    {
      "name": "HitBoxManager"
    },
    {
      "name": "RigidBody",
      "properties": {
        "angularVelocity": 0,
        "static": false,
        "rotationLocked": true,
        "ghost": false,
        "gravityScale": 9.8,
        "collisionGroup" : 6,
        "bodyPoints": [
          { "x":  0.15, "y":  -0.15 },
          { "x":  -0.03, "y": 0 },
          { "x": -0.2, "y":  -0.15 },
          { "x": -0.2, "y": -0.5 },
          { "x":  0.15, "y": -0.5 }
        ]
      }
    },
    {
      "name": "Animator"
    },
    {
      "name": "ShieldEnemy",
      "properties": {
        "turnDelay": 1.65,
        "moveSpeed": 0.75,
        "attackCooldown": 0.5,
        "attackRange": 1.5,
        "aggroRange": 8
      }
    },
    {
      "name": "Enemy",
      "properties": {
        "connectDamage": false
      }
    },
    {
      "name": "SoundEmitter"
    }
  ]
}
