{
  "name": "Shield",
  "components":
  [
    {
      "name": "Sprite",
      "properties": {
        "image": "shield",
        "color": {
          "r": 1.0,
          "g": 1.0,
          "b": 1.0,
          "a": 1.0
        },
        "glowColor" : {
          "a" : 1,
          "b" : 0.75,
          "g" : 0.75,
          "r" : 0.75
        },
        "brightness": 0.5,
        "glowEnabled": true,
        "depth" : 60
      }
    },
    {
      "name": "BloomEffect",
      "properties": {
        "threshold": 0
      }
    },
    {
      "name": "HitBoxManager"
    },
    {
      "name": "RigidBody",
      "properties": {
        "angularVelocity": 0,
        "static": false,
        "rotationLocked": false,
        "ghost": false,
        "gravityScale": 9.8,
        "material": "default",
        "collisionGroup" : 0,
        "bodyPoints": [
          { "x":  0.2, "y":  0.4 },
          { "x": -0.25, "y":  0.4 },
          { "x": -0.25, "y": -0.4 },
          { "x":  0.2, "y": -0.4 }
        ]
      }
    },
    {
      "name": "Throwable",
      "properties": {
        "integrity": 10
      }
    },
    {
      "name": "Animator"
    },
    {
      "name": "FollowPlayer",
      "properties": {
        "xOffset": 0.75
      }
    },
    {
      "name": "DestructableObject"
    },
    {
      "name": "SoundEmitter"
    }
  ]
}
