{
  "name" : "SmokeParticle",
  "components" : 
  [
    {
      "name" : "ParticleEmitter",
      "properties" : 
      {
        "acceleration" : 
        {
          "x" : 1,
          "y" : 0
        },
        "maxEndColor" : 
        {
          "a" : 0.3921568989753723,
          "b" : 0.6352941393852234,
          "g" : 0.6352941393852234,
          "r" : 0.6352941393852234
        },
        "maxStartColor" : 
        {
          "a" : 1,
          "b" : 0.3490196168422699,
          "g" : 0.3490196168422699,
          "r" : 0.3490196168422699
        },
        "maxVelocity" : 
        {
          "x" : 0.2000000029802322,
          "y" : 1
        },
        "minEndColor" : 
        {
          "a" : 0.3921568989753723,
          "b" : 0.6352941393852234,
          "g" : 0.6352941393852234,
          "r" : 0.6352941393852234
        },
        "minStartColor" : 
        {
          "a" : 1,
          "b" : 0.3490196168422699,
          "g" : 0.3490196168422699,
          "r" : 0.3490196168422699
        },
        "minVelocity" : 
        {
          "x" : 0,
          "y" : 0.5
        },
        "particleScale" : 
        {
          "x" : 0.25,
          "y" : 0.25
        }
      }
    },
    {
      "name" : "FollowEntity"
    }
  ]
}