{
  "name": "ball_enemy_roll",
  "looping": false,
  "ignoreMirrorX": false,
  "ignoreMirrorY": false,

  "frames": [
    {
      "image": "ball_enemy_roll",
      "duration": 0.1,
      "hitboxes": [
        {
          "center": {
            "x": 0.03273809523809524,
            "y": 0.03869047619047619
          },
          "scale": {
            "x": 0.5,
            "y": 0.45
          },
          "type": "body"
        }
      ]
    }
  ]

}
