{
  "name": "droid_idle",
  "looping": false,
  "ignoreMirrorX": false,
  "ignoreMirrorY": false,

  "frames": [
    {
      "image": "droid_idle",
      "duration": 0.1,
      "hitboxes": [
    {
      "center": {
        "x": -0.02976190476190476,
        "y": -0.2961309523809524
      },
      "scale": {
        "x": 0.2976190476190476,
        "y": 0.39880952380952384
      },
      "type": "body"
    }
  ]
    }
  ]

}
