{
  "name": "endSecondLevel",
  "looping": false,
  "ignoreMirrorX": false,
  "ignoreMirrorY": false,

  "frames": [
    {
      "image": "_floor_full",
      "duration": 0.1,
      "hitboxes": [
        {
          "center": {
            "x": 0.0,
            "y": -0.0
          },
          "scale": {
            "x": 0.9,
            "y": 1.0
          },
          "type": "body"
        }
      ]
    }
  ]
}
