{
  "name": "plr_punch2",
  "looping": false,
  "ignoreMirrorX": false,
  "ignoreMirrorY": false,
  "damage": 10,

  "frames": [
    {
      "image": "player_punch1_05",
      "duration": 0.02,
      "flags": [
        "queue",
        "initial"
      ],
      "hitboxes": [
        {
          "center": { "x": 0, "y": 0 },
          "scale": { "x": 0.5, "y": 1 },
          "type": "body"
        }
      ]
    },

    {
      "image": "player_punch1_06",
      "duration": 0.03,
      "flags": [
        "queue"
      ],
      "hitboxes": [
        {
          "center": { "x": 0, "y": 0 },
          "scale": { "x": 0.5, "y": 1 },
          "type": "body"
        }
      ]
    },

    {
      "image": "player_punch1_07",
      "duration": 0.07,
      "flags": [
        "queue",
        "force"
      ],
      "hitboxes": [
        {
          "center": {
            "x": 0.5074906367041199,
            "y": 0.0299625468164794
          },
          "scale": {
            "x": 0.9550561797752809,
            "y": 0.7340823970037453
          },
          "type": "damage"
        },
        {
          "center": {
            "x": -0.033203125,
            "y": -0.146484375
          },
          "scale": {
            "x": 0.5625,
            "y": 0.69921875
          },
          "type": "body"
        }
      ]
    },

    {
      "image": "player_punch1_08",
      "duration": 0.05,
      "flags": [
        "queue"
      ],
      "hitboxes": [
        {
          "center": { "x": 0, "y": 0 },
          "scale": { "x": 0.5, "y": 1 },
          "type": "body"
        }
      ]
    },

    {
      "image": "player_punch1_08",
      "duration": 0.2,
      "flags": [
        "followup"
      ],
      "hitboxes": [
        {
          "center": { "x": 0, "y": 0 },
          "scale": { "x": 0.5, "y": 1 },
          "type": "body"
        }
      ]
    },
    
    {
      "image": "player_punch1_08",
      "duration": 0.2,
      "flags": [
        "followup",
        "skippable"
      ],
      "hitboxes": [
        {
          "center": { "x": 0, "y": 0 },
          "scale": { "x": 0.5, "y": 1 },
          "type": "body"
        }
      ]
    }
  ]

}
