{
  "name": "shield_walk",
  "looping": false,
  "ignoreMirrorX": false,
  "ignoreMirrorY": false,

  "frames": [
    {
      "image": "RiotShield_Walk_01",
      "duration": 0.01,
      "hitboxes": [
        {
          "center": { "x": 0, "y": 0 },
          "scale": { "x": 1.0, "y": 1 },
          "type": "body"
        }
      ]
    },
    {
      "image": "RiotShield_Walk_01",
      "duration": 0.4,
      "hitboxes": [
        {
          "center": { "x": 0, "y": 0 },
          "scale": { "x": 1.0, "y": 1 },
          "type": "body"
        }
      ]
    }
  ]

}
