{
  "name": "shield",
  "looping": false,
  "ignoreMirrorX": false,
  "ignoreMirrorY": false,

  "frames": [
    {
      "image": "shield",
      "duration": 0.1,
      "hitboxes": [
        {
          "center": {
            "x": 0.0,
            "y": -0.0
          },
          "scale": {
            "x": 1.55859375,
            "y": 1.484375
          },
          "type": "body"
        }
      ]
    }
  ]

}
