{
  "name": "shield_attack",
  "looping": false,
  "ignoreMirrorX": false,
  "ignoreMirrorY": false,

  "frames": [
    {
      "image": "RiotShield_Attack_01",
      "duration": 0.01,
      "hitboxes": [
        {
          "center": {
            "x": 0.080078125,
            "y": -0.17578125
          },
          "scale": {
            "x": 0.5546875,
            "y": 0.65625
          },
          "type": "body"
        }
      ]
    },
    {
      "image": "RiotShield_Attack_01",
      "duration": 1.0,
      "hitboxes": [
        {
          "center": {
            "x": 0.080078125,
            "y": -0.17578125
          },
          "scale": {
            "x": 0.5546875,
            "y": 0.65625
          },
          "type": "body"
        }
      ]
    },
    {
      "image": "RiotShield_Attack_02",
      "duration": 0.3,
      "hitboxes": [
        {
          "center": {
            "x": 0.080078125,
            "y": -0.17578125
          },
          "scale": {
            "x": 0.5546875,
            "y": 0.65625
          },
          "type": "body"
        }
      ]
    },
    {
      "image": "RiotShield_Attack_03",
      "duration": 0.5,
      "flags": [
        "queue"
      ],
      "hitboxes": [
        {
          "center": {
            "x": -0.3515625,
            "y": -0.310546875
          },
          "scale": {
            "x": 0.21875,
            "y": 0.390625
          },
          "type": "damage"
        }
      ]
    },
    {
      "image": "RiotShield_Attack_03",
      "duration": 0.5,
      "flags": [
        "skippable"
      ],
      "hitboxes": [
        {
          "center": {
            "x": 0.12890625,
            "y": -0.3046875
          },
          "scale": {
            "x": 0.51953125,
            "y": 0.40625
          },
          "type": "body"
        }
      ]
    }
  ]

}
