Cog = 
{
	LinkId = 
	{
		uint Id = 1,
	},
	Named = 
	{
		string Name = "BackgroundLayer3",
	},
	Transform = 
	{
		Vec3 Translation = [-50, 13, -30],
		Vec3 Scale = [1.7, 1.7, 1.7],
		Quat Rotation = [0, 1, 0, -4.37114e-008],
	},
	Sprite = 
	{
		string SpriteSource = "543540e88895c0c6:Layer3",
		bool FlipX = true,
		bool FlipY = false,
		Vec4 Color = [1, 1, 1, 1],
		bool Visible = true,
		bool OnTop = false,
		bool AnimationActive = true,
		float AnimationSpeed = 1,
		uint StartFrame = 0,
		BlendMode BlendMode = Alpha,
		SpriteGeometryMode GeometryMode = ZPlane,
		string SpriteLayer = "52ad5fa30d7fcd50:DefaultSpriteLayer",
	},
	Parallax = 
	{
		float Speed = 0.8,
	},
},
