Cog = 
{
	LinkId = 
	{
		uint Id = 1,
	},
	Named = 
	{
		string Name = "BlastEnemy",
	},
	Archetyped = 
	{
		string Name = "53c17b4e77012eb9:BlastEnemy",
	},
	Transform = 
	{
		Vec3 Translation = [37.5, 0.5, 0],
		Vec3 Scale = [2, 2, 2],
		Quat Rotation = [0, 0, 0, 1],
	},
	EnemyLogic = 
	{
		float KnockbackStrength = 2,
		float UppercutStrength = 18,
		string DeathSound = "541c3907ae4366b2:ExplosionMedium",
		bool DeathCamera = false,
	},
	BlastEnemy = 
	{
		float Cooldown = 1.5,
		int AttackStrength = 10,
		float AttackEndSize = 7,
		float AttackGrowthRate = 0.3,
	},
	DropWhenDestroyed = 
	{
		string ObjectToDrop = "54364dee99ff8a68:Explosion",
	},
	Sprite = 
	{
		string SpriteSource = "54343ec87356bc23:BlastEnemy",
		bool FlipX = false,
		bool FlipY = false,
		Vec4 Color = [1, 0, 0, 1],
		bool Visible = true,
		bool OnTop = false,
		bool AnimationActive = true,
		float AnimationSpeed = 1,
		uint StartFrame = 0,
		BlendMode BlendMode = Alpha,
		SpriteGeometryMode GeometryMode = ZPlane,
		string SpriteLayer = "52ad5fa30d7fcd50:DefaultSpriteLayer",
	},
	Shield = 
	{
		int Integrity = 50,
		float RechargeTime = 5,
		Vec4 ShieldColor = [1, 1, 1, 1],
	},
	BoxCollider = 
	{
		bool Ghost = false,
		bool SendsMessages = true,
		bool Seamless = true,
		string MaterialName = "4de020863e872da8:DefaultPhysicsMaterial",
		string SerializedGroupName = "53d936754564c4b4:Enemy",
		Vec3 Offset = [0, 0, 0],
		Vec3 Size = [0.75, 1, 0.5],
	},
	RigidBody = 
	{
		bool Static = false,
		bool Asleep = false,
		bool Kinematic = false,
		bool RotationLocked = true,
		bool Mode2D = true,
		bool AllowSleep = false,
		bool Inherit2DMode = true,
		Vec3 Velocity = [0, 0, 0],
		Vec3 AngularVelocity = [0, 0, 0],
	},
	SoundEmitter = 
	{
		bool StartPlaying = false,
		int ExtraPriority = 0,
		string CueName = "4e1bd44008b4dc2a:DefaultCue",
		float Volume = 1,
		float Pitch = 1,
		bool Positional = false,
	},
	Hierarchy = 
	{
		Cog = 
		{
			LinkId = 
			{
				uint Id = 2,
			},
			Named = 
			{
				string Name = "CriticalPoint",
			},
			Transform = 
			{
				Vec3 Translation = [0, 0, -0.1],
				Vec3 Scale = [0.5, 0.5, 1],
				Quat Rotation = [0, 0, 0, 1],
			},
			Sprite = 
			{
				string SpriteSource = "5275aa4d802dd6dc:Square",
				bool FlipX = false,
				bool FlipY = false,
				Vec4 Color = [1, 0, 0, 1],
				bool Visible = true,
				bool OnTop = false,
				bool AnimationActive = true,
				float AnimationSpeed = 1,
				uint StartFrame = 0,
				BlendMode BlendMode = Alpha,
				SpriteGeometryMode GeometryMode = ZPlane,
				string SpriteLayer = "52ad5fa30d7fcd50:DefaultSpriteLayer",
			},
			BoxCollider = 
			{
				bool Ghost = false,
				bool SendsMessages = true,
				bool Seamless = true,
				string MaterialName = "4de020863e872da8:DefaultPhysicsMaterial",
				string SerializedGroupName = "53d936754564c4b4:Enemy",
				Vec3 Offset = [0, 0, 0],
				Vec3 Size = [1.25, 2, 0.5],
			},
			CriticalPoint = 
			{
			},
		},
		Cog = 
		{
			LinkId = 
			{
				uint Id = 3,
			},
			Named = 
			{
				string Name = "AttackCircle",
			},
			Transform = 
			{
				Vec3 Translation = [0, 0, 0],
				Vec3 Scale = [0.5, 0.5, 0.5],
				Quat Rotation = [0, 0, 0, 1],
			},
			Sprite = 
			{
				string SpriteSource = "5274db4c2e7c11f9:Circle",
				bool FlipX = false,
				bool FlipY = false,
				Vec4 Color = [1, 0, 0, 0.35],
				bool Visible = false,
				bool OnTop = false,
				bool AnimationActive = true,
				float AnimationSpeed = 1,
				uint StartFrame = 0,
				BlendMode BlendMode = Alpha,
				SpriteGeometryMode GeometryMode = ZPlane,
				string SpriteLayer = "52ad5fa30d7fcd50:DefaultSpriteLayer",
			},
			SphereCollider = 
			{
				bool Ghost = true,
				bool SendsMessages = true,
				bool Seamless = true,
				string MaterialName = "4de020863e872da8:DefaultPhysicsMaterial",
				string SerializedGroupName = "4e740859314e5515:DefaultGroup",
				Vec3 Offset = [0, 0, 0],
				float Radius = 0.5,
			},
		},
		Cog = 
		{
			LinkId = 
			{
				uint Id = 4,
			},
			Named = 
			{
				string Name = "AttackCircleMax",
			},
			Transform = 
			{
				Vec3 Translation = [0, 0, 0],
				Vec3 Scale = [7, 7, 0.5],
				Quat Rotation = [0, 0, 0, 1],
			},
			Sprite = 
			{
				string SpriteSource = "5274db4c2e7c11f9:Circle",
				bool FlipX = false,
				bool FlipY = false,
				Vec4 Color = [1, 0, 0, 0.15],
				bool Visible = false,
				bool OnTop = false,
				bool AnimationActive = true,
				float AnimationSpeed = 1,
				uint StartFrame = 0,
				BlendMode BlendMode = Alpha,
				SpriteGeometryMode GeometryMode = ZPlane,
				string SpriteLayer = "52ad5fa30d7fcd50:DefaultSpriteLayer",
			},
			SphereCollider = 
			{
				bool Ghost = true,
				bool SendsMessages = true,
				bool Seamless = true,
				string MaterialName = "4de020863e872da8:DefaultPhysicsMaterial",
				string SerializedGroupName = "4e740859314e5515:DefaultGroup",
				Vec3 Offset = [0, 0, 0],
				float Radius = 0.5,
			},
		},
		Cog = 
		{
			LinkId = 
			{
				uint Id = 5,
			},
			Named = 
			{
				string Name = "B_Button",
			},
			Transform = 
			{
				Vec3 Translation = [0, 1.2, 0.1],
				Vec3 Scale = [0.9, 0.9, 0.5],
				Quat Rotation = [0, 0, 0, 1],
			},
			Sprite = 
			{
				string SpriteSource = "5475dce321bf9536:B_Button",
				bool FlipX = false,
				bool FlipY = false,
				Vec4 Color = [0.94, 0.9306, 0.9306, 1],
				bool Visible = false,
				bool OnTop = false,
				bool AnimationActive = true,
				float AnimationSpeed = 1,
				uint StartFrame = 0,
				BlendMode BlendMode = Alpha,
				SpriteGeometryMode GeometryMode = ZPlane,
				string SpriteLayer = "52ad5fa30d7fcd50:DefaultSpriteLayer",
			},
		},
	},
},
