Level = 
{
	LevelSettings = 
	{
		LinkId = 
		{
			uint Id = 1,
		},
		Named = 
		{
			string Name = "LevelSettings",
		},
		GravityEffect = 
		{
			bool Active = true,
			bool WakeUpOnChange = false,
			bool LocalSpaceDirection = true,
			float Strength = 10,
			Vec3 Direction = [0, -1, 0],
		},
		DragEffect = 
		{
			bool Active = true,
			bool WakeUpOnChange = false,
			float Drag = 0.7,
		},
		CameraViewport = 
		{
			bool Background = true,
			Vec2 Offset = [0, 0],
			Vec2 Size = [1, 1],
			int Layer = 0,
			bool Active = true,
			bool Blocking = true,
			uint Renderer = 1,
			uint Camera = 2,
			ViewportScaling Scaling = Fill,
			Vec2 Resolution = [1280, 720],
			Vec4 MarginColor = [0, 0, 0, 1],
		},
		ForwardRenderer = 
		{
			Vec4 ClearColor = [0, 0, 0, 1],
		},
		GameManager = 
		{
			bool AllowQuit = true,
		},
	},
	Cog = 
	{
		LinkId = 
		{
			uint Id = 3,
		},
		Named = 
		{
			string Name = "EditorCamera",
		},
		Transform = 
		{
			Vec3 Translation = [-46.4492, 4.68672, 50],
			Vec3 Scale = [1, 1, 1],
			Quat Rotation = [-0, -1.09278e-008, 0, 1],
		},
		Camera = 
		{
			ProjectionMode ProjectionMode = Orthographic,
			Facing Facing = NegativeZ,
			SpriteSort SpriteSort = ZDepth,
			string SpriteLayerOrder = "52b23ad3c402d436:DefaultSpriteLayerOrder",
			float FieldOfView = 45,
			float NearPlane = 0.5,
			float FarPlane = 500,
			float Size = 18.2683,
		},
		EditorCameraController = 
		{
			ControlMode ControlMode = ZPlane,
			float LookDistance = 50,
			float VerticalAngle = 0,
			float HorizontalAngle = 0,
			Vec3 LookTarget = [-46.4492, 4.68672, 0],
		},
		EditorRenderer = 
		{
			Vec4 ClearColor = [0.278431, 0.278431, 0.278431, 1],
		},
		Hierarchy = 
		{
		},
	},
	Cog = 
	{
		LinkId = 
		{
			uint Id = 4,
		},
		Named = 
		{
			string Name = "Floor",
		},
		Transform = 
		{
			Vec3 Translation = [-19, -26, 0],
			Vec3 Scale = [400, 50, 1],
			Quat Rotation = [0, 0, 0, 1],
		},
		Sprite = 
		{
			string SpriteSource = "5275aa4d802dd6dc:Square",
			bool FlipX = false,
			bool FlipY = false,
			Vec4 Color = [0, 0, 0, 1],
			bool Visible = true,
			bool OnTop = false,
			bool AnimationActive = true,
			float AnimationSpeed = 1,
			uint StartFrame = 0,
			BlendMode BlendMode = Alpha,
			SpriteGeometryMode GeometryMode = ZPlane,
			string SpriteLayer = "52ad5fa30d7fcd50:DefaultSpriteLayer",
		},
		BoxCollider = 
		{
			bool Ghost = false,
			bool SendsMessages = true,
			bool Seamless = false,
			string MaterialName = "4faa6050b8692851:HardMaterial",
			string SerializedGroupName = "4e740859314e5515:DefaultGroup",
			Vec3 Offset = [0, 0, 0],
			Vec3 Size = [0.5, 0.5, 0.5],
		},
		RigidBody = 
		{
			bool Static = true,
			bool Asleep = false,
			bool Kinematic = false,
			bool RotationLocked = false,
			bool Mode2D = true,
			bool AllowSleep = true,
			bool Inherit2DMode = true,
			Vec3 Velocity = [0, 0, 0],
			Vec3 AngularVelocity = [0, 0, 0],
		},
		IgnoreSpaceEffects = 
		{
			bool Drag = false,
			bool Flow = false,
			bool Force = false,
			bool Gravity = true,
			bool Thrust = false,
			bool Vortex = false,
			bool Wind = false,
			bool Invalid = false,
			bool Torque = false,
			bool PointGravity = false,
			bool PointForce = false,
			bool Buoyancy = false,
		},
		Hierarchy = 
		{
		},
	},
	Cog = 
	{
		LinkId = 
		{
			uint Id = 5,
		},
		Named = 
		{
			string Name = "Platform",
		},
		Transform = 
		{
			Vec3 Translation = [129, -1.5, 0],
			Vec3 Scale = [10, 50, 1],
			Quat Rotation = [0, 0, 0, 1],
		},
		Sprite = 
		{
			string SpriteSource = "5275aa4d802dd6dc:Square",
			bool FlipX = false,
			bool FlipY = false,
			Vec4 Color = [0, 0, 0, 1],
			bool Visible = true,
			bool OnTop = false,
			bool AnimationActive = true,
			float AnimationSpeed = 1,
			uint StartFrame = 0,
			BlendMode BlendMode = Alpha,
			SpriteGeometryMode GeometryMode = ZPlane,
			string SpriteLayer = "52ad5fa30d7fcd50:DefaultSpriteLayer",
		},
		BoxCollider = 
		{
			bool Ghost = false,
			bool SendsMessages = true,
			bool Seamless = false,
			string MaterialName = "4faa6050b8692851:HardMaterial",
			string SerializedGroupName = "4e740859314e5515:DefaultGroup",
			Vec3 Offset = [0, 0, 0],
			Vec3 Size = [0.5, 0.5, 0.5],
		},
		RigidBody = 
		{
			bool Static = true,
			bool Asleep = false,
			bool Kinematic = false,
			bool RotationLocked = false,
			bool Mode2D = true,
			bool AllowSleep = true,
			bool Inherit2DMode = true,
			Vec3 Velocity = [0, 0, 0],
			Vec3 AngularVelocity = [0, 0, 0],
		},
		IgnoreSpaceEffects = 
		{
			bool Drag = false,
			bool Flow = false,
			bool Force = false,
			bool Gravity = true,
			bool Thrust = false,
			bool Vortex = false,
			bool Wind = false,
			bool Invalid = false,
			bool Torque = false,
			bool PointGravity = false,
			bool PointForce = false,
			bool Buoyancy = false,
		},
		Hierarchy = 
		{
		},
	},
	ArchetypeInstance = 
	{
		string Name = "538eeff541d5fa5f:LevelCamera",
		LinkId = 
		{
			uint Id = 2,
		},
		Transform = 
		{
			Vec3 Translation = [-50, 7.5, 10],
			Vec3 Scale = [1, 1, 1],
			Quat Rotation = [0, 0, 0, 1],
		},
		Named = 
		{
			string Name = "Camera",
		},
	},
	Cog = 
	{
		LinkId = 
		{
			uint Id = 6,
		},
		Named = 
		{
			string Name = "Platform",
		},
		Archetyped = 
		{
			string Name = "5384b15714682cff:Platform",
		},
		Transform = 
		{
			Vec3 Translation = [-20, 1.5, 0],
			Vec3 Scale = [15, 5, 1],
			Quat Rotation = [0, 0, 0, 1],
		},
		Sprite = 
		{
			string SpriteSource = "5275aa4d802dd6dc:Square",
			bool FlipX = false,
			bool FlipY = false,
			Vec4 Color = [0, 0, 0, 1],
			bool Visible = true,
			bool OnTop = false,
			bool AnimationActive = true,
			float AnimationSpeed = 1,
			uint StartFrame = 0,
			BlendMode BlendMode = Alpha,
			SpriteGeometryMode GeometryMode = ZPlane,
			string SpriteLayer = "52ad5fa30d7fcd50:DefaultSpriteLayer",
		},
		BoxCollider = 
		{
			bool Ghost = false,
			bool SendsMessages = true,
			bool Seamless = false,
			string MaterialName = "4faa6050b8692851:HardMaterial",
			string SerializedGroupName = "4e740859314e5515:DefaultGroup",
			Vec3 Offset = [0, 0, 0],
			Vec3 Size = [0.5, 0.5, 0.5],
		},
		RigidBody = 
		{
			bool Static = true,
			bool Asleep = false,
			bool Kinematic = false,
			bool RotationLocked = false,
			bool Mode2D = true,
			bool AllowSleep = true,
			bool Inherit2DMode = true,
			Vec3 Velocity = [0, 0, 0],
			Vec3 AngularVelocity = [0, 0, 0],
		},
		IgnoreSpaceEffects = 
		{
			bool Drag = false,
			bool Flow = false,
			bool Force = false,
			bool Gravity = true,
			bool Thrust = false,
			bool Vortex = false,
			bool Wind = false,
			bool Invalid = false,
			bool Torque = false,
			bool PointGravity = false,
			bool PointForce = false,
			bool Buoyancy = false,
		},
		Hierarchy = 
		{
		},
	},
	ArchetypeInstance = 
	{
		string Name = "53cf33502e4ec3f0:SlantedPlatform",
		LinkId = 
		{
			uint Id = 7,
		},
		Transform = 
		{
			Vec3 Translation = [148, 11.5, 0],
			Vec3 Scale = [6, 1, 1],
			Quat Rotation = [0, 0, 0.382683, 0.92388],
		},
		Named = 
		{
			string Name = "SlantedPlatform",
		},
	},
	Cog = 
	{
		LinkId = 
		{
			uint Id = 8,
		},
		Named = 
		{
			string Name = "Platform",
		},
		Archetyped = 
		{
			string Name = "5384b15714682cff:Platform",
		},
		Transform = 
		{
			Vec3 Translation = [61, 0.5, 0],
			Vec3 Scale = [60, 5, 1],
			Quat Rotation = [0, 0, 0, 1],
		},
		Sprite = 
		{
			string SpriteSource = "5275aa4d802dd6dc:Square",
			bool FlipX = false,
			bool FlipY = false,
			Vec4 Color = [0, 0, 0, 1],
			bool Visible = true,
			bool OnTop = false,
			bool AnimationActive = true,
			float AnimationSpeed = 1,
			uint StartFrame = 0,
			BlendMode BlendMode = Alpha,
			SpriteGeometryMode GeometryMode = ZPlane,
			string SpriteLayer = "52ad5fa30d7fcd50:DefaultSpriteLayer",
		},
		BoxCollider = 
		{
			bool Ghost = false,
			bool SendsMessages = true,
			bool Seamless = false,
			string MaterialName = "4faa6050b8692851:HardMaterial",
			string SerializedGroupName = "4e740859314e5515:DefaultGroup",
			Vec3 Offset = [0, 0, 0],
			Vec3 Size = [0.5, 0.5, 0.5],
		},
		RigidBody = 
		{
			bool Static = true,
			bool Asleep = false,
			bool Kinematic = false,
			bool RotationLocked = false,
			bool Mode2D = true,
			bool AllowSleep = true,
			bool Inherit2DMode = true,
			Vec3 Velocity = [0, 0, 0],
			Vec3 AngularVelocity = [0, 0, 0],
		},
		IgnoreSpaceEffects = 
		{
			bool Drag = false,
			bool Flow = false,
			bool Force = false,
			bool Gravity = true,
			bool Thrust = false,
			bool Vortex = false,
			bool Wind = false,
			bool Invalid = false,
			bool Torque = false,
			bool PointGravity = false,
			bool PointForce = false,
			bool Buoyancy = false,
		},
		Hierarchy = 
		{
		},
	},
	Cog = 
	{
		LinkId = 
		{
			uint Id = 9,
		},
		Named = 
		{
			string Name = "Platform",
		},
		Archetyped = 
		{
			string Name = "5384b15714682cff:Platform",
		},
		Transform = 
		{
			Vec3 Translation = [63.5, 12.5, 0],
			Vec3 Scale = [15, 1, 1],
			Quat Rotation = [0, 0, 0, 1],
		},
		Sprite = 
		{
			string SpriteSource = "5275aa4d802dd6dc:Square",
			bool FlipX = false,
			bool FlipY = false,
			Vec4 Color = [0, 0, 0, 1],
			bool Visible = true,
			bool OnTop = false,
			bool AnimationActive = true,
			float AnimationSpeed = 1,
			uint StartFrame = 0,
			BlendMode BlendMode = Alpha,
			SpriteGeometryMode GeometryMode = ZPlane,
			string SpriteLayer = "52ad5fa30d7fcd50:DefaultSpriteLayer",
		},
		BoxCollider = 
		{
			bool Ghost = false,
			bool SendsMessages = true,
			bool Seamless = false,
			string MaterialName = "4faa6050b8692851:HardMaterial",
			string SerializedGroupName = "4e740859314e5515:DefaultGroup",
			Vec3 Offset = [0, 0, 0],
			Vec3 Size = [0.5, 0.5, 0.5],
		},
		RigidBody = 
		{
			bool Static = true,
			bool Asleep = false,
			bool Kinematic = false,
			bool RotationLocked = false,
			bool Mode2D = true,
			bool AllowSleep = true,
			bool Inherit2DMode = true,
			Vec3 Velocity = [0, 0, 0],
			Vec3 AngularVelocity = [0, 0, 0],
		},
		IgnoreSpaceEffects = 
		{
			bool Drag = false,
			bool Flow = false,
			bool Force = false,
			bool Gravity = true,
			bool Thrust = false,
			bool Vortex = false,
			bool Wind = false,
			bool Invalid = false,
			bool Torque = false,
			bool PointGravity = false,
			bool PointForce = false,
			bool Buoyancy = false,
		},
		Hierarchy = 
		{
		},
	},
	Cog = 
	{
		LinkId = 
		{
			uint Id = 10,
		},
		Named = 
		{
			string Name = "Platform",
		},
		Archetyped = 
		{
			string Name = "5384b15714682cff:Platform",
		},
		Transform = 
		{
			Vec3 Translation = [36, 10.5, 0],
			Vec3 Scale = [10, 3, 1],
			Quat Rotation = [0, 0, 0, 1],
		},
		Sprite = 
		{
			string SpriteSource = "5275aa4d802dd6dc:Square",
			bool FlipX = false,
			bool FlipY = false,
			Vec4 Color = [0, 0, 0, 1],
			bool Visible = true,
			bool OnTop = false,
			bool AnimationActive = true,
			float AnimationSpeed = 1,
			uint StartFrame = 0,
			BlendMode BlendMode = Alpha,
			SpriteGeometryMode GeometryMode = ZPlane,
			string SpriteLayer = "52ad5fa30d7fcd50:DefaultSpriteLayer",
		},
		BoxCollider = 
		{
			bool Ghost = false,
			bool SendsMessages = true,
			bool Seamless = false,
			string MaterialName = "4faa6050b8692851:HardMaterial",
			string SerializedGroupName = "4e740859314e5515:DefaultGroup",
			Vec3 Offset = [0, 0, 0],
			Vec3 Size = [0.5, 0.5, 0.5],
		},
		RigidBody = 
		{
			bool Static = true,
			bool Asleep = false,
			bool Kinematic = false,
			bool RotationLocked = false,
			bool Mode2D = true,
			bool AllowSleep = true,
			bool Inherit2DMode = true,
			Vec3 Velocity = [0, 0, 0],
			Vec3 AngularVelocity = [0, 0, 0],
		},
		IgnoreSpaceEffects = 
		{
			bool Drag = false,
			bool Flow = false,
			bool Force = false,
			bool Gravity = true,
			bool Thrust = false,
			bool Vortex = false,
			bool Wind = false,
			bool Invalid = false,
			bool Torque = false,
			bool PointGravity = false,
			bool PointForce = false,
			bool Buoyancy = false,
		},
		Hierarchy = 
		{
		},
	},
	Cog = 
	{
		LinkId = 
		{
			uint Id = 11,
		},
		Named = 
		{
			string Name = "Platform",
		},
		Archetyped = 
		{
			string Name = "5384b15714682cff:Platform",
		},
		Transform = 
		{
			Vec3 Translation = [46, 9.5, 0],
			Vec3 Scale = [10, 1, 1],
			Quat Rotation = [0, 0, 0, 1],
		},
		Sprite = 
		{
			string SpriteSource = "5275aa4d802dd6dc:Square",
			bool FlipX = false,
			bool FlipY = false,
			Vec4 Color = [0, 0, 0, 1],
			bool Visible = true,
			bool OnTop = false,
			bool AnimationActive = true,
			float AnimationSpeed = 1,
			uint StartFrame = 0,
			BlendMode BlendMode = Alpha,
			SpriteGeometryMode GeometryMode = ZPlane,
			string SpriteLayer = "52ad5fa30d7fcd50:DefaultSpriteLayer",
		},
		BoxCollider = 
		{
			bool Ghost = false,
			bool SendsMessages = true,
			bool Seamless = false,
			string MaterialName = "4faa6050b8692851:HardMaterial",
			string SerializedGroupName = "4e740859314e5515:DefaultGroup",
			Vec3 Offset = [0, 0, 0],
			Vec3 Size = [0.5, 0.5, 0.5],
		},
		RigidBody = 
		{
			bool Static = true,
			bool Asleep = false,
			bool Kinematic = false,
			bool RotationLocked = false,
			bool Mode2D = true,
			bool AllowSleep = true,
			bool Inherit2DMode = true,
			Vec3 Velocity = [0, 0, 0],
			Vec3 AngularVelocity = [0, 0, 0],
		},
		IgnoreSpaceEffects = 
		{
			bool Drag = false,
			bool Flow = false,
			bool Force = false,
			bool Gravity = true,
			bool Thrust = false,
			bool Vortex = false,
			bool Wind = false,
			bool Invalid = false,
			bool Torque = false,
			bool PointGravity = false,
			bool PointForce = false,
			bool Buoyancy = false,
		},
		Hierarchy = 
		{
		},
	},
	Cog = 
	{
		LinkId = 
		{
			uint Id = 12,
		},
		Named = 
		{
			string Name = "BlastEnemy",
		},
		Archetyped = 
		{
			string Name = "53c17b4e77012eb9:BlastEnemy",
		},
		Transform = 
		{
			Vec3 Translation = [63.5, 5, 0],
			Vec3 Scale = [2, 2, 2],
			Quat Rotation = [0, 0, 0, 1],
		},
		EnemyLogic = 
		{
			float KnockbackStrength = 2,
			float UppercutStrength = 18,
			string DeathSound = "541c3907ae4366b2:ExplosionMedium",
			bool DeathCamera = false,
		},
		BlastEnemy = 
		{
			float Cooldown = 1.5,
			int AttackStrength = 10,
			float AttackEndSize = 7,
			float AttackGrowthRate = 0.3,
		},
		DropWhenDestroyed = 
		{
			string ObjectToDrop = "54364dee99ff8a68:Explosion",
		},
		Sprite = 
		{
			string SpriteSource = "54343ec87356bc23:BlastEnemy",
			bool FlipX = false,
			bool FlipY = false,
			Vec4 Color = [1, 1, 1, 1],
			bool Visible = true,
			bool OnTop = false,
			bool AnimationActive = true,
			float AnimationSpeed = 1,
			uint StartFrame = 0,
			BlendMode BlendMode = Alpha,
			SpriteGeometryMode GeometryMode = ZPlane,
			string SpriteLayer = "52ad5fa30d7fcd50:DefaultSpriteLayer",
		},
		LevelGate = 
		{
			CogPath Barrier = ":/Barrier",
		},
		Shield = 
		{
			int Integrity = 50,
			float RechargeTime = 5,
			Vec4 ShieldColor = [1, 1, 1, 1],
		},
		BoxCollider = 
		{
			bool Ghost = false,
			bool SendsMessages = true,
			bool Seamless = true,
			string MaterialName = "4de020863e872da8:DefaultPhysicsMaterial",
			string SerializedGroupName = "53d936754564c4b4:Enemy",
			Vec3 Offset = [0, 0, 0],
			Vec3 Size = [0.75, 1, 0.5],
		},
		RigidBody = 
		{
			bool Static = false,
			bool Asleep = false,
			bool Kinematic = false,
			bool RotationLocked = true,
			bool Mode2D = true,
			bool AllowSleep = false,
			bool Inherit2DMode = true,
			Vec3 Velocity = [0, 0, 0],
			Vec3 AngularVelocity = [0, 0, 0],
		},
		SoundEmitter = 
		{
			bool StartPlaying = false,
			int ExtraPriority = 0,
			string CueName = "4e1bd44008b4dc2a:DefaultCue",
			float Volume = 1,
			float Pitch = 1,
			bool Positional = false,
		},
		Hierarchy = 
		{
			Cog = 
			{
				LinkId = 
				{
					uint Id = 13,
				},
				Named = 
				{
					string Name = "CriticalPoint",
				},
				Transform = 
				{
					Vec3 Translation = [0, 0, -0.1],
					Vec3 Scale = [0.5, 0.5, 1],
					Quat Rotation = [0, 0, 0, 1],
				},
				Sprite = 
				{
					string SpriteSource = "5275aa4d802dd6dc:Square",
					bool FlipX = false,
					bool FlipY = false,
					Vec4 Color = [1, 0, 0, 1],
					bool Visible = true,
					bool OnTop = false,
					bool AnimationActive = true,
					float AnimationSpeed = 1,
					uint StartFrame = 0,
					BlendMode BlendMode = Alpha,
					SpriteGeometryMode GeometryMode = ZPlane,
					string SpriteLayer = "52ad5fa30d7fcd50:DefaultSpriteLayer",
				},
				BoxCollider = 
				{
					bool Ghost = false,
					bool SendsMessages = true,
					bool Seamless = true,
					string MaterialName = "4de020863e872da8:DefaultPhysicsMaterial",
					string SerializedGroupName = "53d936754564c4b4:Enemy",
					Vec3 Offset = [0, 0, 0],
					Vec3 Size = [1.25, 2, 0.5],
				},
				CriticalPoint = 
				{
				},
			},
			Cog = 
			{
				LinkId = 
				{
					uint Id = 14,
				},
				Named = 
				{
					string Name = "AttackCircle",
				},
				Transform = 
				{
					Vec3 Translation = [0, 0, 0],
					Vec3 Scale = [0.5, 0.5, 0.5],
					Quat Rotation = [0, 0, 0, 1],
				},
				Sprite = 
				{
					string SpriteSource = "5274db4c2e7c11f9:Circle",
					bool FlipX = false,
					bool FlipY = false,
					Vec4 Color = [1, 0, 0, 0.35],
					bool Visible = false,
					bool OnTop = false,
					bool AnimationActive = true,
					float AnimationSpeed = 1,
					uint StartFrame = 0,
					BlendMode BlendMode = Alpha,
					SpriteGeometryMode GeometryMode = ZPlane,
					string SpriteLayer = "52ad5fa30d7fcd50:DefaultSpriteLayer",
				},
				SphereCollider = 
				{
					bool Ghost = true,
					bool SendsMessages = true,
					bool Seamless = true,
					string MaterialName = "4de020863e872da8:DefaultPhysicsMaterial",
					string SerializedGroupName = "4e740859314e5515:DefaultGroup",
					Vec3 Offset = [0, 0, 0],
					float Radius = 0.5,
				},
			},
			Cog = 
			{
				LinkId = 
				{
					uint Id = 15,
				},
				Named = 
				{
					string Name = "AttackCircleMax",
				},
				Transform = 
				{
					Vec3 Translation = [0, 0, 0],
					Vec3 Scale = [7, 7, 0.5],
					Quat Rotation = [0, 0, 0, 1],
				},
				Sprite = 
				{
					string SpriteSource = "5274db4c2e7c11f9:Circle",
					bool FlipX = false,
					bool FlipY = false,
					Vec4 Color = [1, 0, 0, 0.15],
					bool Visible = false,
					bool OnTop = false,
					bool AnimationActive = true,
					float AnimationSpeed = 1,
					uint StartFrame = 0,
					BlendMode BlendMode = Alpha,
					SpriteGeometryMode GeometryMode = ZPlane,
					string SpriteLayer = "52ad5fa30d7fcd50:DefaultSpriteLayer",
				},
				SphereCollider = 
				{
					bool Ghost = true,
					bool SendsMessages = true,
					bool Seamless = true,
					string MaterialName = "4de020863e872da8:DefaultPhysicsMaterial",
					string SerializedGroupName = "4e740859314e5515:DefaultGroup",
					Vec3 Offset = [0, 0, 0],
					float Radius = 0.5,
				},
			},
			Cog = 
			{
				LinkId = 
				{
					uint Id = 16,
				},
				Named = 
				{
					string Name = "B_Button",
				},
				Transform = 
				{
					Vec3 Translation = [0, 1.2, 0.1],
					Vec3 Scale = [0.9, 0.9, 0.5],
					Quat Rotation = [0, 0, 0, 1],
				},
				Sprite = 
				{
					string SpriteSource = "5475dce321bf9536:B_Button",
					bool FlipX = false,
					bool FlipY = false,
					Vec4 Color = [0.94, 0.9306, 0.9306, 1],
					bool Visible = false,
					bool OnTop = false,
					bool AnimationActive = true,
					float AnimationSpeed = 1,
					uint StartFrame = 0,
					BlendMode BlendMode = Alpha,
					SpriteGeometryMode GeometryMode = ZPlane,
					string SpriteLayer = "52ad5fa30d7fcd50:DefaultSpriteLayer",
				},
			},
		},
	},
	Cog = 
	{
		LinkId = 
		{
			uint Id = 17,
		},
		Named = 
		{
			string Name = "Platform",
		},
		Transform = 
		{
			Vec3 Translation = [-68, -1.5, 0],
			Vec3 Scale = [20, 50, 1],
			Quat Rotation = [0, 0, 0, 1],
		},
		Sprite = 
		{
			string SpriteSource = "5275aa4d802dd6dc:Square",
			bool FlipX = false,
			bool FlipY = false,
			Vec4 Color = [0, 0, 0, 1],
			bool Visible = true,
			bool OnTop = false,
			bool AnimationActive = true,
			float AnimationSpeed = 1,
			uint StartFrame = 0,
			BlendMode BlendMode = Alpha,
			SpriteGeometryMode GeometryMode = ZPlane,
			string SpriteLayer = "52ad5fa30d7fcd50:DefaultSpriteLayer",
		},
		BoxCollider = 
		{
			bool Ghost = false,
			bool SendsMessages = true,
			bool Seamless = false,
			string MaterialName = "4faa6050b8692851:HardMaterial",
			string SerializedGroupName = "4e740859314e5515:DefaultGroup",
			Vec3 Offset = [0, 0, 0],
			Vec3 Size = [0.5, 0.5, 0.5],
		},
		RigidBody = 
		{
			bool Static = true,
			bool Asleep = false,
			bool Kinematic = false,
			bool RotationLocked = false,
			bool Mode2D = true,
			bool AllowSleep = true,
			bool Inherit2DMode = true,
			Vec3 Velocity = [0, 0, 0],
			Vec3 AngularVelocity = [0, 0, 0],
		},
		IgnoreSpaceEffects = 
		{
			bool Drag = false,
			bool Flow = false,
			bool Force = false,
			bool Gravity = true,
			bool Thrust = false,
			bool Vortex = false,
			bool Wind = false,
			bool Invalid = false,
			bool Torque = false,
			bool PointGravity = false,
			bool PointForce = false,
			bool Buoyancy = false,
		},
		Hierarchy = 
		{
		},
	},
	Cog = 
	{
		LinkId = 
		{
			uint Id = 18,
		},
		Named = 
		{
			string Name = "Background",
		},
		Transform = 
		{
			Vec3 Translation = [0, 0, 0],
			Vec3 Scale = [1, 1, 1],
			Quat Rotation = [0, 0, 0, 1],
		},
		Hierarchy = 
		{
			Cog = 
			{
				LinkId = 
				{
					uint Id = 19,
				},
				Named = 
				{
					string Name = "BackgroundLayer1",
				},
				Transform = 
				{
					Vec3 Translation = [-79.5, 20, -10],
					Vec3 Scale = [2.5, 2.5, 2.5],
					Quat Rotation = [0, 1, 0, -4.37114e-008],
				},
				Sprite = 
				{
					string SpriteSource = "5435417c42f05ac8:Layer1",
					bool FlipX = true,
					bool FlipY = false,
					Vec4 Color = [1, 1, 1, 1],
					bool Visible = true,
					bool OnTop = false,
					bool AnimationActive = true,
					float AnimationSpeed = 1,
					uint StartFrame = 0,
					BlendMode BlendMode = Alpha,
					SpriteGeometryMode GeometryMode = ZPlane,
					string SpriteLayer = "52ad5fa30d7fcd50:DefaultSpriteLayer",
				},
				Parallax = 
				{
					float Speed = 0.25,
				},
			},
			Cog = 
			{
				LinkId = 
				{
					uint Id = 20,
				},
				Named = 
				{
					string Name = "BackgroundLayer3",
				},
				Transform = 
				{
					Vec3 Translation = [-55.5, 13, -30],
					Vec3 Scale = [1.7, 1.7, 1.7],
					Quat Rotation = [0, 1, 0, -4.37114e-008],
				},
				Sprite = 
				{
					string SpriteSource = "543540e88895c0c6:Layer3",
					bool FlipX = true,
					bool FlipY = false,
					Vec4 Color = [1, 1, 1, 1],
					bool Visible = true,
					bool OnTop = false,
					bool AnimationActive = true,
					float AnimationSpeed = 1,
					uint StartFrame = 0,
					BlendMode BlendMode = Alpha,
					SpriteGeometryMode GeometryMode = ZPlane,
					string SpriteLayer = "52ad5fa30d7fcd50:DefaultSpriteLayer",
				},
				Parallax = 
				{
					float Speed = 0.8,
				},
			},
			Cog = 
			{
				LinkId = 
				{
					uint Id = 21,
				},
				Named = 
				{
					string Name = "BackgroundLayer2",
				},
				Transform = 
				{
					Vec3 Translation = [-4.5, 13, -20],
					Vec3 Scale = [1.7, 1.7, 1.7],
					Quat Rotation = [0, 1, 0, -4.37114e-008],
				},
				Sprite = 
				{
					string SpriteSource = "543541b4abcad7cc:Layer2",
					bool FlipX = true,
					bool FlipY = false,
					Vec4 Color = [1, 1, 1, 1],
					bool Visible = true,
					bool OnTop = false,
					bool AnimationActive = true,
					float AnimationSpeed = 1,
					uint StartFrame = 0,
					BlendMode BlendMode = Alpha,
					SpriteGeometryMode GeometryMode = ZPlane,
					string SpriteLayer = "52ad5fa30d7fcd50:DefaultSpriteLayer",
				},
				Parallax = 
				{
					float Speed = 0.5,
				},
			},
			Cog = 
			{
				LinkId = 
				{
					uint Id = 22,
				},
				Named = 
				{
					string Name = "BackgroundLayer1",
				},
				Transform = 
				{
					Vec3 Translation = [-4.5, 20, -10],
					Vec3 Scale = [2.5, 2.5, 2.5],
					Quat Rotation = [0, 1, 0, -4.37114e-008],
				},
				Sprite = 
				{
					string SpriteSource = "5435417c42f05ac8:Layer1",
					bool FlipX = true,
					bool FlipY = false,
					Vec4 Color = [1, 1, 1, 1],
					bool Visible = true,
					bool OnTop = false,
					bool AnimationActive = true,
					float AnimationSpeed = 1,
					uint StartFrame = 0,
					BlendMode BlendMode = Alpha,
					SpriteGeometryMode GeometryMode = ZPlane,
					string SpriteLayer = "52ad5fa30d7fcd50:DefaultSpriteLayer",
				},
				Parallax = 
				{
					float Speed = 0.25,
				},
			},
			Cog = 
			{
				LinkId = 
				{
					uint Id = 23,
				},
				Named = 
				{
					string Name = "BackgroundLayer5",
				},
				Transform = 
				{
					Vec3 Translation = [-4.5, 13, -50],
					Vec3 Scale = [1.7, 1.7, 1.7],
					Quat Rotation = [0, 1, 0, -4.37114e-008],
				},
				Sprite = 
				{
					string SpriteSource = "543544417ecf8fac:Layer5",
					bool FlipX = true,
					bool FlipY = false,
					Vec4 Color = [1, 1, 1, 1],
					bool Visible = true,
					bool OnTop = false,
					bool AnimationActive = true,
					float AnimationSpeed = 1,
					uint StartFrame = 0,
					BlendMode BlendMode = Alpha,
					SpriteGeometryMode GeometryMode = ZPlane,
					string SpriteLayer = "52ad5fa30d7fcd50:DefaultSpriteLayer",
				},
				Parallax = 
				{
					float Speed = 1,
				},
			},
			Cog = 
			{
				LinkId = 
				{
					uint Id = 24,
				},
				Named = 
				{
					string Name = "BackgroundLayer3",
				},
				Transform = 
				{
					Vec3 Translation = [-4.5, 13, -30],
					Vec3 Scale = [1.7, 1.7, 1.7],
					Quat Rotation = [0, 1, 0, -4.37114e-008],
				},
				Sprite = 
				{
					string SpriteSource = "543540e88895c0c6:Layer3",
					bool FlipX = true,
					bool FlipY = false,
					Vec4 Color = [1, 1, 1, 1],
					bool Visible = true,
					bool OnTop = false,
					bool AnimationActive = true,
					float AnimationSpeed = 1,
					uint StartFrame = 0,
					BlendMode BlendMode = Alpha,
					SpriteGeometryMode GeometryMode = ZPlane,
					string SpriteLayer = "52ad5fa30d7fcd50:DefaultSpriteLayer",
				},
				Parallax = 
				{
					float Speed = 0.8,
				},
			},
			Cog = 
			{
				LinkId = 
				{
					uint Id = 25,
				},
				Named = 
				{
					string Name = "BackgroundLayer3",
				},
				Transform = 
				{
					Vec3 Translation = [46.5, 13, -30],
					Vec3 Scale = [1.7, 1.7, 1.7],
					Quat Rotation = [0, 1, 0, -4.37114e-008],
				},
				Sprite = 
				{
					string SpriteSource = "543540e88895c0c6:Layer3",
					bool FlipX = true,
					bool FlipY = false,
					Vec4 Color = [1, 1, 1, 1],
					bool Visible = true,
					bool OnTop = false,
					bool AnimationActive = true,
					float AnimationSpeed = 1,
					uint StartFrame = 0,
					BlendMode BlendMode = Alpha,
					SpriteGeometryMode GeometryMode = ZPlane,
					string SpriteLayer = "52ad5fa30d7fcd50:DefaultSpriteLayer",
				},
				Parallax = 
				{
					float Speed = 0.8,
				},
			},
			Cog = 
			{
				LinkId = 
				{
					uint Id = 26,
				},
				Named = 
				{
					string Name = "BackgroundLayer4",
				},
				Transform = 
				{
					Vec3 Translation = [-4.5, 13, -40],
					Vec3 Scale = [1.7, 1.7, 1.7],
					Quat Rotation = [0, 1, 0, -4.37114e-008],
				},
				Sprite = 
				{
					string SpriteSource = "543540e88895e733:Layer4",
					bool FlipX = true,
					bool FlipY = false,
					Vec4 Color = [1, 1, 1, 1],
					bool Visible = true,
					bool OnTop = false,
					bool AnimationActive = true,
					float AnimationSpeed = 1,
					uint StartFrame = 0,
					BlendMode BlendMode = Alpha,
					SpriteGeometryMode GeometryMode = ZPlane,
					string SpriteLayer = "52ad5fa30d7fcd50:DefaultSpriteLayer",
				},
				Parallax = 
				{
					float Speed = 0.9,
				},
			},
			Cog = 
			{
				LinkId = 
				{
					uint Id = 27,
				},
				Named = 
				{
					string Name = "BackgroundLayer5",
				},
				Transform = 
				{
					Vec3 Translation = [46.5, 13, -50],
					Vec3 Scale = [1.7, 1.7, 1.7],
					Quat Rotation = [0, 1, 0, -4.37114e-008],
				},
				Sprite = 
				{
					string SpriteSource = "543544417ecf8fac:Layer5",
					bool FlipX = true,
					bool FlipY = false,
					Vec4 Color = [1, 1, 1, 1],
					bool Visible = true,
					bool OnTop = false,
					bool AnimationActive = true,
					float AnimationSpeed = 1,
					uint StartFrame = 0,
					BlendMode BlendMode = Alpha,
					SpriteGeometryMode GeometryMode = ZPlane,
					string SpriteLayer = "52ad5fa30d7fcd50:DefaultSpriteLayer",
				},
				Parallax = 
				{
					float Speed = 1,
				},
			},
			Cog = 
			{
				LinkId = 
				{
					uint Id = 28,
				},
				Named = 
				{
					string Name = "BackgroundLayer2",
				},
				Transform = 
				{
					Vec3 Translation = [46.5, 13, -20],
					Vec3 Scale = [1.7, 1.7, 1.7],
					Quat Rotation = [0, 1, 0, -4.37114e-008],
				},
				Sprite = 
				{
					string SpriteSource = "543541b4abcad7cc:Layer2",
					bool FlipX = true,
					bool FlipY = false,
					Vec4 Color = [1, 1, 1, 1],
					bool Visible = true,
					bool OnTop = false,
					bool AnimationActive = true,
					float AnimationSpeed = 1,
					uint StartFrame = 0,
					BlendMode BlendMode = Alpha,
					SpriteGeometryMode GeometryMode = ZPlane,
					string SpriteLayer = "52ad5fa30d7fcd50:DefaultSpriteLayer",
				},
				Parallax = 
				{
					float Speed = 0.5,
				},
			},
			Cog = 
			{
				LinkId = 
				{
					uint Id = 29,
				},
				Named = 
				{
					string Name = "BackgroundLayer1",
				},
				Transform = 
				{
					Vec3 Translation = [70.5, 20, -10],
					Vec3 Scale = [2.5, 2.5, 2.5],
					Quat Rotation = [0, 1, 0, -4.37114e-008],
				},
				Sprite = 
				{
					string SpriteSource = "5435417c42f05ac8:Layer1",
					bool FlipX = true,
					bool FlipY = false,
					Vec4 Color = [1, 1, 1, 1],
					bool Visible = true,
					bool OnTop = false,
					bool AnimationActive = true,
					float AnimationSpeed = 1,
					uint StartFrame = 0,
					BlendMode BlendMode = Alpha,
					SpriteGeometryMode GeometryMode = ZPlane,
					string SpriteLayer = "52ad5fa30d7fcd50:DefaultSpriteLayer",
				},
				Parallax = 
				{
					float Speed = 0.25,
				},
			},
			Cog = 
			{
				LinkId = 
				{
					uint Id = 30,
				},
				Named = 
				{
					string Name = "BackgroundLayer4",
				},
				Transform = 
				{
					Vec3 Translation = [-55.5, 13, -40],
					Vec3 Scale = [1.7, 1.7, 1.7],
					Quat Rotation = [0, 1, 0, -4.37114e-008],
				},
				Sprite = 
				{
					string SpriteSource = "543540e88895e733:Layer4",
					bool FlipX = true,
					bool FlipY = false,
					Vec4 Color = [1, 1, 1, 1],
					bool Visible = true,
					bool OnTop = false,
					bool AnimationActive = true,
					float AnimationSpeed = 1,
					uint StartFrame = 0,
					BlendMode BlendMode = Alpha,
					SpriteGeometryMode GeometryMode = ZPlane,
					string SpriteLayer = "52ad5fa30d7fcd50:DefaultSpriteLayer",
				},
				Parallax = 
				{
					float Speed = 0.9,
				},
			},
			Cog = 
			{
				LinkId = 
				{
					uint Id = 31,
				},
				Named = 
				{
					string Name = "BackgroundLayer2",
				},
				Transform = 
				{
					Vec3 Translation = [-55.5, 13, -20],
					Vec3 Scale = [1.7, 1.7, 1.7],
					Quat Rotation = [0, 1, 0, -4.37114e-008],
				},
				Sprite = 
				{
					string SpriteSource = "543541b4abcad7cc:Layer2",
					bool FlipX = true,
					bool FlipY = false,
					Vec4 Color = [1, 1, 1, 1],
					bool Visible = true,
					bool OnTop = false,
					bool AnimationActive = true,
					float AnimationSpeed = 1,
					uint StartFrame = 0,
					BlendMode BlendMode = Alpha,
					SpriteGeometryMode GeometryMode = ZPlane,
					string SpriteLayer = "52ad5fa30d7fcd50:DefaultSpriteLayer",
				},
				Parallax = 
				{
					float Speed = 0.5,
				},
			},
			Cog = 
			{
				LinkId = 
				{
					uint Id = 32,
				},
				Named = 
				{
					string Name = "BackgroundLayer5",
				},
				Transform = 
				{
					Vec3 Translation = [-55.5, 13, -50],
					Vec3 Scale = [1.7, 1.7, 1.7],
					Quat Rotation = [0, 1, 0, -4.37114e-008],
				},
				Sprite = 
				{
					string SpriteSource = "543544417ecf8fac:Layer5",
					bool FlipX = true,
					bool FlipY = false,
					Vec4 Color = [1, 1, 1, 1],
					bool Visible = true,
					bool OnTop = false,
					bool AnimationActive = true,
					float AnimationSpeed = 1,
					uint StartFrame = 0,
					BlendMode BlendMode = Alpha,
					SpriteGeometryMode GeometryMode = ZPlane,
					string SpriteLayer = "52ad5fa30d7fcd50:DefaultSpriteLayer",
				},
				Parallax = 
				{
					float Speed = 1,
				},
			},
			Cog = 
			{
				LinkId = 
				{
					uint Id = 33,
				},
				Named = 
				{
					string Name = "BackgroundLayer4",
				},
				Transform = 
				{
					Vec3 Translation = [46.5, 13, -40],
					Vec3 Scale = [1.7, 1.7, 1.7],
					Quat Rotation = [0, 1, 0, -4.37114e-008],
				},
				Sprite = 
				{
					string SpriteSource = "543540e88895e733:Layer4",
					bool FlipX = true,
					bool FlipY = false,
					Vec4 Color = [1, 1, 1, 1],
					bool Visible = true,
					bool OnTop = false,
					bool AnimationActive = true,
					float AnimationSpeed = 1,
					uint StartFrame = 0,
					BlendMode BlendMode = Alpha,
					SpriteGeometryMode GeometryMode = ZPlane,
					string SpriteLayer = "52ad5fa30d7fcd50:DefaultSpriteLayer",
				},
				Parallax = 
				{
					float Speed = 0.9,
				},
			},
		},
	},
	ArchetypeInstance = 
	{
		string Name = "5426b835865fde23:DroneEnemy",
		LinkId = 
		{
			uint Id = 34,
		},
		Transform = 
		{
			Vec3 Translation = [6, 6, 0],
			Vec3 Scale = [1.5, 1.5, 1],
			Quat Rotation = [0, 0, 0, 1],
		},
		Named = 
		{
			string Name = "Drone",
		},
	},
	ArchetypeInstance = 
	{
		string Name = "5426b835865fde23:DroneEnemy",
		LinkId = 
		{
			uint Id = 35,
		},
		Transform = 
		{
			Vec3 Translation = [13, 6, 0],
			Vec3 Scale = [1.5, 1.5, 1],
			Quat Rotation = [0, 0, 0, 1],
		},
		Named = 
		{
			string Name = "Drone",
		},
	},
	ArchetypeInstance = 
	{
		string Name = "5426b835865fde23:DroneEnemy",
		LinkId = 
		{
			uint Id = 36,
		},
		Transform = 
		{
			Vec3 Translation = [24, 6, 0],
			Vec3 Scale = [1.5, 1.5, 1],
			Quat Rotation = [0, 0, 0, 1],
		},
		Named = 
		{
			string Name = "Drone",
		},
	},
	ArchetypeInstance = 
	{
		string Name = "5426b835865fde23:DroneEnemy",
		LinkId = 
		{
			uint Id = 37,
		},
		Transform = 
		{
			Vec3 Translation = [29, 6, 0],
			Vec3 Scale = [1.5, 1.5, 1],
			Quat Rotation = [0, 0, 0, 1],
		},
		Named = 
		{
			string Name = "Drone",
		},
	},
	Cog = 
	{
		LinkId = 
		{
			uint Id = 38,
		},
		Named = 
		{
			string Name = "ElectricFence",
		},
		Transform = 
		{
			Vec3 Translation = [6, 1.5, 0],
			Vec3 Scale = [1, 1, 1],
			Quat Rotation = [0, 0, 0, 1],
		},
		Sprite = 
		{
			string SpriteSource = "54254ab847fc8741:ElectricWall",
			bool FlipX = false,
			bool FlipY = false,
			Vec4 Color = [0.3196, 0.828328, 0.94, 1],
			bool Visible = true,
			bool OnTop = false,
			bool AnimationActive = true,
			float AnimationSpeed = 1,
			uint StartFrame = 0,
			BlendMode BlendMode = Alpha,
			SpriteGeometryMode GeometryMode = ZPlane,
			string SpriteLayer = "52ad5fa30d7fcd50:DefaultSpriteLayer",
		},
		BoxCollider = 
		{
			bool Ghost = false,
			bool SendsMessages = true,
			bool Seamless = true,
			string MaterialName = "4de020863e872da8:DefaultPhysicsMaterial",
			string SerializedGroupName = "4e740859314e5515:DefaultGroup",
			Vec3 Offset = [0, 0, 0],
			Vec3 Size = [0.5, 2.5, 0.5],
		},
		DamageOnCollide = 
		{
			int Damage = 10,
		},
	},
	Cog = 
	{
		LinkId = 
		{
			uint Id = 39,
		},
		Named = 
		{
			string Name = "Platform",
		},
		Archetyped = 
		{
			string Name = "5384b15714682cff:Platform",
		},
		Transform = 
		{
			Vec3 Translation = [-16.5, 5, 0],
			Vec3 Scale = [7, 3, 1],
			Quat Rotation = [0, 0, -0.382683, 0.92388],
		},
		Sprite = 
		{
			string SpriteSource = "5275aa4d802dd6dc:Square",
			bool FlipX = false,
			bool FlipY = false,
			Vec4 Color = [0, 0, 0, 1],
			bool Visible = true,
			bool OnTop = false,
			bool AnimationActive = true,
			float AnimationSpeed = 1,
			uint StartFrame = 0,
			BlendMode BlendMode = Alpha,
			SpriteGeometryMode GeometryMode = ZPlane,
			string SpriteLayer = "52ad5fa30d7fcd50:DefaultSpriteLayer",
		},
		BoxCollider = 
		{
			bool Ghost = false,
			bool SendsMessages = true,
			bool Seamless = false,
			string MaterialName = "4faa6050b8692851:HardMaterial",
			string SerializedGroupName = "4e740859314e5515:DefaultGroup",
			Vec3 Offset = [0, 0, 0],
			Vec3 Size = [0.5, 0.5, 0.5],
		},
		RigidBody = 
		{
			bool Static = true,
			bool Asleep = false,
			bool Kinematic = false,
			bool RotationLocked = false,
			bool Mode2D = true,
			bool AllowSleep = true,
			bool Inherit2DMode = true,
			Vec3 Velocity = [0, 0, 0],
			Vec3 AngularVelocity = [0, 0, 0],
		},
		IgnoreSpaceEffects = 
		{
			bool Drag = false,
			bool Flow = false,
			bool Force = false,
			bool Gravity = true,
			bool Thrust = false,
			bool Vortex = false,
			bool Wind = false,
			bool Invalid = false,
			bool Torque = false,
			bool PointGravity = false,
			bool PointForce = false,
			bool Buoyancy = false,
		},
		Hierarchy = 
		{
		},
	},
	Cog = 
	{
		LinkId = 
		{
			uint Id = 40,
		},
		Named = 
		{
			string Name = "Platform",
		},
		Archetyped = 
		{
			string Name = "5384b15714682cff:Platform",
		},
		Transform = 
		{
			Vec3 Translation = [-22.5, 6.5, 0],
			Vec3 Scale = [10, 5, 1],
			Quat Rotation = [0, 0, 0, 1],
		},
		Sprite = 
		{
			string SpriteSource = "5275aa4d802dd6dc:Square",
			bool FlipX = false,
			bool FlipY = false,
			Vec4 Color = [0, 0, 0, 1],
			bool Visible = true,
			bool OnTop = false,
			bool AnimationActive = true,
			float AnimationSpeed = 1,
			uint StartFrame = 0,
			BlendMode BlendMode = Alpha,
			SpriteGeometryMode GeometryMode = ZPlane,
			string SpriteLayer = "52ad5fa30d7fcd50:DefaultSpriteLayer",
		},
		BoxCollider = 
		{
			bool Ghost = false,
			bool SendsMessages = true,
			bool Seamless = false,
			string MaterialName = "4faa6050b8692851:HardMaterial",
			string SerializedGroupName = "4e740859314e5515:DefaultGroup",
			Vec3 Offset = [0, 0, 0],
			Vec3 Size = [0.5, 0.5, 0.5],
		},
		RigidBody = 
		{
			bool Static = true,
			bool Asleep = false,
			bool Kinematic = false,
			bool RotationLocked = false,
			bool Mode2D = true,
			bool AllowSleep = true,
			bool Inherit2DMode = true,
			Vec3 Velocity = [0, 0, 0],
			Vec3 AngularVelocity = [0, 0, 0],
		},
		IgnoreSpaceEffects = 
		{
			bool Drag = false,
			bool Flow = false,
			bool Force = false,
			bool Gravity = true,
			bool Thrust = false,
			bool Vortex = false,
			bool Wind = false,
			bool Invalid = false,
			bool Torque = false,
			bool PointGravity = false,
			bool PointForce = false,
			bool Buoyancy = false,
		},
		Hierarchy = 
		{
		},
	},
	Cog = 
	{
		LinkId = 
		{
			uint Id = 41,
		},
		Named = 
		{
			string Name = "Platform",
		},
		Archetyped = 
		{
			string Name = "5384b15714682cff:Platform",
		},
		Transform = 
		{
			Vec3 Translation = [-27.5, 1.5, 0],
			Vec3 Scale = [15, 5, 1],
			Quat Rotation = [0, 0, 0, 1],
		},
		Sprite = 
		{
			string SpriteSource = "5275aa4d802dd6dc:Square",
			bool FlipX = false,
			bool FlipY = false,
			Vec4 Color = [0, 0, 0, 1],
			bool Visible = true,
			bool OnTop = false,
			bool AnimationActive = true,
			float AnimationSpeed = 1,
			uint StartFrame = 0,
			BlendMode BlendMode = Alpha,
			SpriteGeometryMode GeometryMode = ZPlane,
			string SpriteLayer = "52ad5fa30d7fcd50:DefaultSpriteLayer",
		},
		BoxCollider = 
		{
			bool Ghost = false,
			bool SendsMessages = true,
			bool Seamless = false,
			string MaterialName = "4faa6050b8692851:HardMaterial",
			string SerializedGroupName = "4e740859314e5515:DefaultGroup",
			Vec3 Offset = [0, 0, 0],
			Vec3 Size = [0.5, 0.5, 0.5],
		},
		RigidBody = 
		{
			bool Static = true,
			bool Asleep = false,
			bool Kinematic = false,
			bool RotationLocked = false,
			bool Mode2D = true,
			bool AllowSleep = true,
			bool Inherit2DMode = true,
			Vec3 Velocity = [0, 0, 0],
			Vec3 AngularVelocity = [0, 0, 0],
		},
		IgnoreSpaceEffects = 
		{
			bool Drag = false,
			bool Flow = false,
			bool Force = false,
			bool Gravity = true,
			bool Thrust = false,
			bool Vortex = false,
			bool Wind = false,
			bool Invalid = false,
			bool Torque = false,
			bool PointGravity = false,
			bool PointForce = false,
			bool Buoyancy = false,
		},
		Hierarchy = 
		{
		},
	},
	ArchetypeInstance = 
	{
		string Name = "5426b835865fde23:DroneEnemy",
		LinkId = 
		{
			uint Id = 42,
		},
		Transform = 
		{
			Vec3 Translation = [70, 9, 0],
			Vec3 Scale = [1.5, 1.5, 1],
			Quat Rotation = [0, 0, 0, 1],
		},
		Named = 
		{
			string Name = "Drone",
		},
	},
	ArchetypeInstance = 
	{
		string Name = "5426b835865fde23:DroneEnemy",
		LinkId = 
		{
			uint Id = 43,
		},
		Transform = 
		{
			Vec3 Translation = [57.5, 9, 0],
			Vec3 Scale = [1.5, 1.5, 1],
			Quat Rotation = [0, 0, 0, 1],
		},
		Named = 
		{
			string Name = "Drone",
		},
	},
	Cog = 
	{
		LinkId = 
		{
			uint Id = 44,
		},
		Named = 
		{
			string Name = "Platform",
		},
		Archetyped = 
		{
			string Name = "5384b15714682cff:Platform",
		},
		Transform = 
		{
			Vec3 Translation = [122, 4.5, 0],
			Vec3 Scale = [15, 1, 1],
			Quat Rotation = [0, 0, 0, 1],
		},
		Sprite = 
		{
			string SpriteSource = "5275aa4d802dd6dc:Square",
			bool FlipX = false,
			bool FlipY = false,
			Vec4 Color = [0, 0, 0, 1],
			bool Visible = true,
			bool OnTop = false,
			bool AnimationActive = true,
			float AnimationSpeed = 1,
			uint StartFrame = 0,
			BlendMode BlendMode = Alpha,
			SpriteGeometryMode GeometryMode = ZPlane,
			string SpriteLayer = "52ad5fa30d7fcd50:DefaultSpriteLayer",
		},
		BoxCollider = 
		{
			bool Ghost = false,
			bool SendsMessages = true,
			bool Seamless = false,
			string MaterialName = "4faa6050b8692851:HardMaterial",
			string SerializedGroupName = "4e740859314e5515:DefaultGroup",
			Vec3 Offset = [0, 0, 0],
			Vec3 Size = [0.5, 0.5, 0.5],
		},
		RigidBody = 
		{
			bool Static = true,
			bool Asleep = false,
			bool Kinematic = false,
			bool RotationLocked = false,
			bool Mode2D = true,
			bool AllowSleep = true,
			bool Inherit2DMode = true,
			Vec3 Velocity = [0, 0, 0],
			Vec3 AngularVelocity = [0, 0, 0],
		},
		IgnoreSpaceEffects = 
		{
			bool Drag = false,
			bool Flow = false,
			bool Force = false,
			bool Gravity = true,
			bool Thrust = false,
			bool Vortex = false,
			bool Wind = false,
			bool Invalid = false,
			bool Torque = false,
			bool PointGravity = false,
			bool PointForce = false,
			bool Buoyancy = false,
		},
		Hierarchy = 
		{
		},
	},
	Cog = 
	{
		LinkId = 
		{
			uint Id = 45,
		},
		Named = 
		{
			string Name = "Platform",
		},
		Archetyped = 
		{
			string Name = "5384b15714682cff:Platform",
		},
		Transform = 
		{
			Vec3 Translation = [90.5, 4.5, 0],
			Vec3 Scale = [15, 3, 1],
			Quat Rotation = [0, 0, 0, 1],
		},
		Sprite = 
		{
			string SpriteSource = "5275aa4d802dd6dc:Square",
			bool FlipX = false,
			bool FlipY = false,
			Vec4 Color = [0, 0, 0, 1],
			bool Visible = true,
			bool OnTop = false,
			bool AnimationActive = true,
			float AnimationSpeed = 1,
			uint StartFrame = 0,
			BlendMode BlendMode = Alpha,
			SpriteGeometryMode GeometryMode = ZPlane,
			string SpriteLayer = "52ad5fa30d7fcd50:DefaultSpriteLayer",
		},
		BoxCollider = 
		{
			bool Ghost = false,
			bool SendsMessages = true,
			bool Seamless = false,
			string MaterialName = "4faa6050b8692851:HardMaterial",
			string SerializedGroupName = "4e740859314e5515:DefaultGroup",
			Vec3 Offset = [0, 0, 0],
			Vec3 Size = [0.5, 0.5, 0.5],
		},
		RigidBody = 
		{
			bool Static = true,
			bool Asleep = false,
			bool Kinematic = false,
			bool RotationLocked = false,
			bool Mode2D = true,
			bool AllowSleep = true,
			bool Inherit2DMode = true,
			Vec3 Velocity = [0, 0, 0],
			Vec3 AngularVelocity = [0, 0, 0],
		},
		IgnoreSpaceEffects = 
		{
			bool Drag = false,
			bool Flow = false,
			bool Force = false,
			bool Gravity = true,
			bool Thrust = false,
			bool Vortex = false,
			bool Wind = false,
			bool Invalid = false,
			bool Torque = false,
			bool PointGravity = false,
			bool PointForce = false,
			bool Buoyancy = false,
		},
		Hierarchy = 
		{
		},
	},
	Cog = 
	{
		LinkId = 
		{
			uint Id = 46,
		},
		Named = 
		{
			string Name = "Platform",
		},
		Archetyped = 
		{
			string Name = "5384b15714682cff:Platform",
		},
		Transform = 
		{
			Vec3 Translation = [104, 18.5, 0],
			Vec3 Scale = [15, 10, 1],
			Quat Rotation = [0, 0, 0, 1],
		},
		Sprite = 
		{
			string SpriteSource = "5275aa4d802dd6dc:Square",
			bool FlipX = false,
			bool FlipY = false,
			Vec4 Color = [0, 0, 0, 1],
			bool Visible = true,
			bool OnTop = false,
			bool AnimationActive = true,
			float AnimationSpeed = 1,
			uint StartFrame = 0,
			BlendMode BlendMode = Alpha,
			SpriteGeometryMode GeometryMode = ZPlane,
			string SpriteLayer = "52ad5fa30d7fcd50:DefaultSpriteLayer",
		},
		BoxCollider = 
		{
			bool Ghost = false,
			bool SendsMessages = true,
			bool Seamless = false,
			string MaterialName = "4faa6050b8692851:HardMaterial",
			string SerializedGroupName = "4e740859314e5515:DefaultGroup",
			Vec3 Offset = [0, 0, 0],
			Vec3 Size = [0.5, 0.5, 0.5],
		},
		RigidBody = 
		{
			bool Static = true,
			bool Asleep = false,
			bool Kinematic = false,
			bool RotationLocked = false,
			bool Mode2D = true,
			bool AllowSleep = true,
			bool Inherit2DMode = true,
			Vec3 Velocity = [0, 0, 0],
			Vec3 AngularVelocity = [0, 0, 0],
		},
		IgnoreSpaceEffects = 
		{
			bool Drag = false,
			bool Flow = false,
			bool Force = false,
			bool Gravity = true,
			bool Thrust = false,
			bool Vortex = false,
			bool Wind = false,
			bool Invalid = false,
			bool Torque = false,
			bool PointGravity = false,
			bool PointForce = false,
			bool Buoyancy = false,
		},
		Hierarchy = 
		{
		},
	},
	Cog = 
	{
		LinkId = 
		{
			uint Id = 47,
		},
		Named = 
		{
			string Name = "Platform",
		},
		Archetyped = 
		{
			string Name = "5384b15714682cff:Platform",
		},
		Transform = 
		{
			Vec3 Translation = [119, 24, 0],
			Vec3 Scale = [15, 10, 1],
			Quat Rotation = [0, 0, 0, 1],
		},
		Sprite = 
		{
			string SpriteSource = "5275aa4d802dd6dc:Square",
			bool FlipX = false,
			bool FlipY = false,
			Vec4 Color = [0, 0, 0, 1],
			bool Visible = true,
			bool OnTop = false,
			bool AnimationActive = true,
			float AnimationSpeed = 1,
			uint StartFrame = 0,
			BlendMode BlendMode = Alpha,
			SpriteGeometryMode GeometryMode = ZPlane,
			string SpriteLayer = "52ad5fa30d7fcd50:DefaultSpriteLayer",
		},
		BoxCollider = 
		{
			bool Ghost = false,
			bool SendsMessages = true,
			bool Seamless = false,
			string MaterialName = "4faa6050b8692851:HardMaterial",
			string SerializedGroupName = "4e740859314e5515:DefaultGroup",
			Vec3 Offset = [0, 0, 0],
			Vec3 Size = [0.5, 0.5, 0.5],
		},
		RigidBody = 
		{
			bool Static = true,
			bool Asleep = false,
			bool Kinematic = false,
			bool RotationLocked = false,
			bool Mode2D = true,
			bool AllowSleep = true,
			bool Inherit2DMode = true,
			Vec3 Velocity = [0, 0, 0],
			Vec3 AngularVelocity = [0, 0, 0],
		},
		IgnoreSpaceEffects = 
		{
			bool Drag = false,
			bool Flow = false,
			bool Force = false,
			bool Gravity = true,
			bool Thrust = false,
			bool Vortex = false,
			bool Wind = false,
			bool Invalid = false,
			bool Torque = false,
			bool PointGravity = false,
			bool PointForce = false,
			bool Buoyancy = false,
		},
		Hierarchy = 
		{
		},
	},
	Cog = 
	{
		LinkId = 
		{
			uint Id = 48,
		},
		Named = 
		{
			string Name = "Platform",
		},
		Archetyped = 
		{
			string Name = "5384b15714682cff:Platform",
		},
		Transform = 
		{
			Vec3 Translation = [107.5, 12, 0],
			Vec3 Scale = [22, 3, 1],
			Quat Rotation = [0, 0, 0, 1],
		},
		Sprite = 
		{
			string SpriteSource = "5275aa4d802dd6dc:Square",
			bool FlipX = false,
			bool FlipY = false,
			Vec4 Color = [0, 0, 0, 1],
			bool Visible = true,
			bool OnTop = false,
			bool AnimationActive = true,
			float AnimationSpeed = 1,
			uint StartFrame = 0,
			BlendMode BlendMode = Alpha,
			SpriteGeometryMode GeometryMode = ZPlane,
			string SpriteLayer = "52ad5fa30d7fcd50:DefaultSpriteLayer",
		},
		BoxCollider = 
		{
			bool Ghost = false,
			bool SendsMessages = true,
			bool Seamless = false,
			string MaterialName = "4faa6050b8692851:HardMaterial",
			string SerializedGroupName = "4e740859314e5515:DefaultGroup",
			Vec3 Offset = [0, 0, 0],
			Vec3 Size = [0.5, 0.5, 0.5],
		},
		RigidBody = 
		{
			bool Static = true,
			bool Asleep = false,
			bool Kinematic = false,
			bool RotationLocked = false,
			bool Mode2D = true,
			bool AllowSleep = true,
			bool Inherit2DMode = true,
			Vec3 Velocity = [0, 0, 0],
			Vec3 AngularVelocity = [0, 0, 0],
		},
		IgnoreSpaceEffects = 
		{
			bool Drag = false,
			bool Flow = false,
			bool Force = false,
			bool Gravity = true,
			bool Thrust = false,
			bool Vortex = false,
			bool Wind = false,
			bool Invalid = false,
			bool Torque = false,
			bool PointGravity = false,
			bool PointForce = false,
			bool Buoyancy = false,
		},
		Hierarchy = 
		{
		},
	},
	Cog = 
	{
		LinkId = 
		{
			uint Id = 49,
		},
		Named = 
		{
			string Name = "EnvironmentBoss",
		},
		Transform = 
		{
			Vec3 Translation = [109, 9, 0],
			Vec3 Scale = [5, 3, 1],
			Quat Rotation = [0, 0, 0, 1],
		},
		Sprite = 
		{
			string SpriteSource = "5275aa4d802dd6dc:Square",
			bool FlipX = false,
			bool FlipY = false,
			Vec4 Color = [0.205, 0.09225, 0, 1],
			bool Visible = true,
			bool OnTop = false,
			bool AnimationActive = true,
			float AnimationSpeed = 1,
			uint StartFrame = 0,
			BlendMode BlendMode = Alpha,
			SpriteGeometryMode GeometryMode = ZPlane,
			string SpriteLayer = "52ad5fa30d7fcd50:DefaultSpriteLayer",
		},
		EnemyLogic = 
		{
			float KnockbackStrength = 8,
			float UppercutStrength = 18,
			string DeathSound = "541c39a6ce2e3d60:ExplosionLarge",
			bool DeathCamera = false,
		},
		DropWhenDestroyed = 
		{
			string ObjectToDrop = "54364dee99ff8a68:Explosion",
		},
		Hierarchy = 
		{
			ArchetypeInstance = 
			{
				string Name = "5425646deb8340df:Console",
				LinkId = 
				{
					uint Id = 50,
				},
				Transform = 
				{
					Vec3 Translation = [2.9, -2.83333, 0],
					Vec3 Scale = [0.2, 0.333333, 1],
					Quat Rotation = [0, 0, 0, 1],
				},
				Named = 
				{
					string Name = "Console",
				},
			},
			Cog = 
			{
				LinkId = 
				{
					uint Id = 51,
				},
				Named = 
				{
					string Name = "Sprite",
				},
				Transform = 
				{
					Vec3 Translation = [0.300001, 0.166667, 0.1],
					Vec3 Scale = [0.2, 0.333333, 1],
					Quat Rotation = [0, 0, 0, 1],
				},
				Sprite = 
				{
					string SpriteSource = "5275aa4d802dd6dc:Square",
					bool FlipX = false,
					bool FlipY = false,
					Vec4 Color = [0.06, 0.0282353, 0, 1],
					bool Visible = true,
					bool OnTop = false,
					bool AnimationActive = true,
					float AnimationSpeed = 1,
					uint StartFrame = 0,
					BlendMode BlendMode = Alpha,
					SpriteGeometryMode GeometryMode = ZPlane,
					string SpriteLayer = "52ad5fa30d7fcd50:DefaultSpriteLayer",
				},
			},
			Cog = 
			{
				LinkId = 
				{
					uint Id = 52,
				},
				Named = 
				{
					string Name = "Sprite",
				},
				Transform = 
				{
					Vec3 Translation = [0.200001, 0.333333, 0.1],
					Vec3 Scale = [0.264522, 0.05697, 1],
					Quat Rotation = [0, 0, 0.439019, 0.878052],
				},
				Sprite = 
				{
					string SpriteSource = "5275aa4d802dd6dc:Square",
					bool FlipX = false,
					bool FlipY = false,
					Vec4 Color = [0.06, 0.0282353, 0, 1],
					bool Visible = true,
					bool OnTop = false,
					bool AnimationActive = true,
					float AnimationSpeed = 1,
					uint StartFrame = 0,
					BlendMode BlendMode = Alpha,
					SpriteGeometryMode GeometryMode = ZPlane,
					string SpriteLayer = "52ad5fa30d7fcd50:DefaultSpriteLayer",
				},
			},
			Cog = 
			{
				LinkId = 
				{
					uint Id = 53,
				},
				Named = 
				{
					string Name = "Sprite",
				},
				Transform = 
				{
					Vec3 Translation = [-0.199999, 0.333333, 0.1],
					Vec3 Scale = [0.255815, 0.0585388, 1],
					Quat Rotation = [0, 0, -0.412816, 0.892243],
				},
				Sprite = 
				{
					string SpriteSource = "5275aa4d802dd6dc:Square",
					bool FlipX = false,
					bool FlipY = false,
					Vec4 Color = [0.06, 0.0282353, 0, 1],
					bool Visible = true,
					bool OnTop = false,
					bool AnimationActive = true,
					float AnimationSpeed = 1,
					uint StartFrame = 0,
					BlendMode BlendMode = Alpha,
					SpriteGeometryMode GeometryMode = ZPlane,
					string SpriteLayer = "52ad5fa30d7fcd50:DefaultSpriteLayer",
				},
			},
			Cog = 
			{
				LinkId = 
				{
					uint Id = 54,
				},
				Named = 
				{
					string Name = "Sprite",
				},
				Transform = 
				{
					Vec3 Translation = [0, -0.333333, 0.1],
					Vec3 Scale = [0.5, 0.166667, 1],
					Quat Rotation = [0, 0, 0, 1],
				},
				Sprite = 
				{
					string SpriteSource = "5275aa4d802dd6dc:Square",
					bool FlipX = false,
					bool FlipY = false,
					Vec4 Color = [0.06, 0.0282353, 0, 1],
					bool Visible = true,
					bool OnTop = false,
					bool AnimationActive = true,
					float AnimationSpeed = 1,
					uint StartFrame = 0,
					BlendMode BlendMode = Alpha,
					SpriteGeometryMode GeometryMode = ZPlane,
					string SpriteLayer = "52ad5fa30d7fcd50:DefaultSpriteLayer",
				},
			},
			Cog = 
			{
				LinkId = 
				{
					uint Id = 55,
				},
				Named = 
				{
					string Name = "Sprite",
				},
				Transform = 
				{
					Vec3 Translation = [-0.299999, 0.166667, 0.1],
					Vec3 Scale = [0.2, 0.333333, 1],
					Quat Rotation = [0, 0, 0, 1],
				},
				Sprite = 
				{
					string SpriteSource = "5275aa4d802dd6dc:Square",
					bool FlipX = false,
					bool FlipY = false,
					Vec4 Color = [0.06, 0.0282353, 0, 1],
					bool Visible = true,
					bool OnTop = false,
					bool AnimationActive = true,
					float AnimationSpeed = 1,
					uint StartFrame = 0,
					BlendMode BlendMode = Alpha,
					SpriteGeometryMode GeometryMode = ZPlane,
					string SpriteLayer = "52ad5fa30d7fcd50:DefaultSpriteLayer",
				},
			},
			Cog = 
			{
				LinkId = 
				{
					uint Id = 56,
				},
				Named = 
				{
					string Name = "Console",
				},
				Archetyped = 
				{
					string Name = "5425646deb8340df:Console",
				},
				Transform = 
				{
					Vec3 Translation = [0.5, 2, 0],
					Vec3 Scale = [0.2, 0.333333, 1],
					Quat Rotation = [-4.37114e-008, -1, 4.37114e-008, 1.91069e-015],
				},
				Sprite = 
				{
					string SpriteSource = "5275aa4d802dd6dc:Square",
					bool FlipX = false,
					bool FlipY = false,
					Vec4 Color = [1, 0, 0, 1],
					bool Visible = true,
					bool OnTop = false,
					bool AnimationActive = true,
					float AnimationSpeed = 1,
					uint StartFrame = 0,
					BlendMode BlendMode = Alpha,
					SpriteGeometryMode GeometryMode = ZPlane,
					string SpriteLayer = "52ad5fa30d7fcd50:DefaultSpriteLayer",
				},
				BoxCollider = 
				{
					bool Ghost = false,
					bool SendsMessages = true,
					bool Seamless = true,
					string MaterialName = "4de020863e872da8:DefaultPhysicsMaterial",
					string SerializedGroupName = "4e740859314e5515:DefaultGroup",
					Vec3 Offset = [0, 0, 0],
					Vec3 Size = [0.5, 0.5, 0.5],
				},
				CriticalPoint = 
				{
				},
				DropWhenDestroyed = 
				{
					string ObjectToDrop = "54364dee99ff8a68:Explosion",
				},
				Hierarchy = 
				{
					Cog = 
					{
						LinkId = 
						{
							uint Id = 57,
						},
						Named = 
						{
							string Name = "Barrier",
						},
						Archetyped = 
						{
							string Name = "54365a749681c587:Barrier",
						},
						Transform = 
						{
							Vec3 Translation = [0.5, -0.5, -0.1],
							Vec3 Scale = [1, 2, 1],
							Quat Rotation = [-4.37114e-008, -1, 4.37114e-008, 1.91069e-015],
						},
						Sprite = 
						{
							string SpriteSource = "5275aa4d802dd6dc:Square",
							bool FlipX = false,
							bool FlipY = false,
							Vec4 Color = [0, 0, 0, 1],
							bool Visible = true,
							bool OnTop = false,
							bool AnimationActive = true,
							float AnimationSpeed = 1,
							uint StartFrame = 0,
							BlendMode BlendMode = Alpha,
							SpriteGeometryMode GeometryMode = ZPlane,
							string SpriteLayer = "52ad5fa30d7fcd50:DefaultSpriteLayer",
						},
						BoxCollider = 
						{
							bool Ghost = false,
							bool SendsMessages = true,
							bool Seamless = true,
							string MaterialName = "4de020863e872da8:DefaultPhysicsMaterial",
							string SerializedGroupName = "4e740859314e5515:DefaultGroup",
							Vec3 Offset = [0, 0, 0],
							Vec3 Size = [0.5, 0.5, 0.5],
						},
						Barrier = 
						{
						},
					},
					Cog = 
					{
						LinkId = 
						{
							uint Id = 58,
						},
						Named = 
						{
							string Name = "Barrier",
						},
						Archetyped = 
						{
							string Name = "54365a749681c587:Barrier",
						},
						Transform = 
						{
							Vec3 Translation = [0, -1, -0.1],
							Vec3 Scale = [1, 1, 1],
							Quat Rotation = [-4.37114e-008, -1, 4.37114e-008, 1.91069e-015],
						},
						Sprite = 
						{
							string SpriteSource = "5275aa4d802dd6dc:Square",
							bool FlipX = false,
							bool FlipY = false,
							Vec4 Color = [0, 0, 0, 1],
							bool Visible = true,
							bool OnTop = false,
							bool AnimationActive = true,
							float AnimationSpeed = 1,
							uint StartFrame = 0,
							BlendMode BlendMode = Alpha,
							SpriteGeometryMode GeometryMode = ZPlane,
							string SpriteLayer = "52ad5fa30d7fcd50:DefaultSpriteLayer",
						},
						BoxCollider = 
						{
							bool Ghost = false,
							bool SendsMessages = true,
							bool Seamless = true,
							string MaterialName = "4de020863e872da8:DefaultPhysicsMaterial",
							string SerializedGroupName = "4e740859314e5515:DefaultGroup",
							Vec3 Offset = [0, 0, 0],
							Vec3 Size = [0.5, 0.5, 0.5],
						},
						Barrier = 
						{
						},
					},
				},
			},
		},
	},
	Cog = 
	{
		LinkId = 
		{
			uint Id = 59,
		},
		Named = 
		{
			string Name = "BlastObstacle",
		},
		Archetyped = 
		{
			string Name = "5426926934861757:BlastObstacle",
		},
		Transform = 
		{
			Vec3 Translation = [114, 14.5, 0],
			Vec3 Scale = [1, 1, 1],
			Quat Rotation = [0, 0, 0, 1],
		},
		BlastEnemy = 
		{
			float Cooldown = 1.5,
			int AttackStrength = 10,
			float AttackEndSize = 8,
			float AttackGrowthRate = 0.3,
		},
		Sprite = 
		{
			string SpriteSource = "5425488ed66c6885:BlastObstacle",
			bool FlipX = false,
			bool FlipY = false,
			Vec4 Color = [1, 1, 1, 1],
			bool Visible = true,
			bool OnTop = false,
			bool AnimationActive = true,
			float AnimationSpeed = 1,
			uint StartFrame = 0,
			BlendMode BlendMode = Alpha,
			SpriteGeometryMode GeometryMode = ZPlane,
			string SpriteLayer = "52ad5fa30d7fcd50:DefaultSpriteLayer",
		},
		SoundEmitter = 
		{
			bool StartPlaying = false,
			int ExtraPriority = 0,
			string CueName = "4e1bd44008b4dc2a:DefaultCue",
			float Volume = 1,
			float Pitch = 1,
			bool Positional = false,
		},
		Hierarchy = 
		{
			Cog = 
			{
				LinkId = 
				{
					uint Id = 60,
				},
				Named = 
				{
					string Name = "AttackCircle",
				},
				Transform = 
				{
					Vec3 Translation = [0, 0, 0],
					Vec3 Scale = [0.5, 0.5, 1],
					Quat Rotation = [0, 0, 0, 1],
				},
				Sprite = 
				{
					string SpriteSource = "5274db4c2e7c11f9:Circle",
					bool FlipX = false,
					bool FlipY = false,
					Vec4 Color = [1, 0, 0, 0.35],
					bool Visible = false,
					bool OnTop = false,
					bool AnimationActive = true,
					float AnimationSpeed = 1,
					uint StartFrame = 0,
					BlendMode BlendMode = Alpha,
					SpriteGeometryMode GeometryMode = ZPlane,
					string SpriteLayer = "52ad5fa30d7fcd50:DefaultSpriteLayer",
				},
				SphereCollider = 
				{
					bool Ghost = true,
					bool SendsMessages = true,
					bool Seamless = true,
					string MaterialName = "4de020863e872da8:DefaultPhysicsMaterial",
					string SerializedGroupName = "4e740859314e5515:DefaultGroup",
					Vec3 Offset = [0, 0, 0],
					float Radius = 0.5,
				},
			},
			Cog = 
			{
				LinkId = 
				{
					uint Id = 61,
				},
				Named = 
				{
					string Name = "AttackCircleMax",
				},
				Transform = 
				{
					Vec3 Translation = [0, 0, 0],
					Vec3 Scale = [8, 8, 1],
					Quat Rotation = [0, 0, 0, 1],
				},
				Sprite = 
				{
					string SpriteSource = "5274db4c2e7c11f9:Circle",
					bool FlipX = false,
					bool FlipY = false,
					Vec4 Color = [1, 0, 0, 0.1],
					bool Visible = true,
					bool OnTop = false,
					bool AnimationActive = true,
					float AnimationSpeed = 1,
					uint StartFrame = 0,
					BlendMode BlendMode = Alpha,
					SpriteGeometryMode GeometryMode = ZPlane,
					string SpriteLayer = "52ad5fa30d7fcd50:DefaultSpriteLayer",
				},
				SphereCollider = 
				{
					bool Ghost = true,
					bool SendsMessages = true,
					bool Seamless = true,
					string MaterialName = "4de020863e872da8:DefaultPhysicsMaterial",
					string SerializedGroupName = "4e740859314e5515:DefaultGroup",
					Vec3 Offset = [0, 0, 0],
					float Radius = 0.5,
				},
			},
		},
	},
	Cog = 
	{
		LinkId = 
		{
			uint Id = 62,
		},
		Named = 
		{
			string Name = "BlastObstacle",
		},
		Archetyped = 
		{
			string Name = "5426926934861757:BlastObstacle",
		},
		Transform = 
		{
			Vec3 Translation = [119.5, 0, 0],
			Vec3 Scale = [1, 1, 1],
			Quat Rotation = [0, 0, 0, 1],
		},
		BlastEnemy = 
		{
			float Cooldown = 1.5,
			int AttackStrength = 10,
			float AttackEndSize = 8,
			float AttackGrowthRate = 0.3,
		},
		Sprite = 
		{
			string SpriteSource = "5425488ed66c6885:BlastObstacle",
			bool FlipX = false,
			bool FlipY = false,
			Vec4 Color = [1, 1, 1, 1],
			bool Visible = true,
			bool OnTop = false,
			bool AnimationActive = true,
			float AnimationSpeed = 1,
			uint StartFrame = 0,
			BlendMode BlendMode = Alpha,
			SpriteGeometryMode GeometryMode = ZPlane,
			string SpriteLayer = "52ad5fa30d7fcd50:DefaultSpriteLayer",
		},
		SoundEmitter = 
		{
			bool StartPlaying = false,
			int ExtraPriority = 0,
			string CueName = "4e1bd44008b4dc2a:DefaultCue",
			float Volume = 1,
			float Pitch = 1,
			bool Positional = true,
		},
		Hierarchy = 
		{
			Cog = 
			{
				LinkId = 
				{
					uint Id = 63,
				},
				Named = 
				{
					string Name = "AttackCircle",
				},
				Transform = 
				{
					Vec3 Translation = [0, 0, 0],
					Vec3 Scale = [0.5, 0.5, 1],
					Quat Rotation = [0, 0, 0, 1],
				},
				Sprite = 
				{
					string SpriteSource = "5274db4c2e7c11f9:Circle",
					bool FlipX = false,
					bool FlipY = false,
					Vec4 Color = [1, 0, 0, 0.35],
					bool Visible = false,
					bool OnTop = false,
					bool AnimationActive = true,
					float AnimationSpeed = 1,
					uint StartFrame = 0,
					BlendMode BlendMode = Alpha,
					SpriteGeometryMode GeometryMode = ZPlane,
					string SpriteLayer = "52ad5fa30d7fcd50:DefaultSpriteLayer",
				},
				SphereCollider = 
				{
					bool Ghost = true,
					bool SendsMessages = true,
					bool Seamless = true,
					string MaterialName = "4de020863e872da8:DefaultPhysicsMaterial",
					string SerializedGroupName = "4e740859314e5515:DefaultGroup",
					Vec3 Offset = [0, 0, 0],
					float Radius = 0.5,
				},
			},
			Cog = 
			{
				LinkId = 
				{
					uint Id = 64,
				},
				Named = 
				{
					string Name = "AttackCircleMax",
				},
				Transform = 
				{
					Vec3 Translation = [0, 0, 0],
					Vec3 Scale = [8, 8, 1],
					Quat Rotation = [0, 0, 0, 1],
				},
				Sprite = 
				{
					string SpriteSource = "5274db4c2e7c11f9:Circle",
					bool FlipX = false,
					bool FlipY = false,
					Vec4 Color = [1, 0, 0, 0.1],
					bool Visible = true,
					bool OnTop = false,
					bool AnimationActive = true,
					float AnimationSpeed = 1,
					uint StartFrame = 0,
					BlendMode BlendMode = Alpha,
					SpriteGeometryMode GeometryMode = ZPlane,
					string SpriteLayer = "52ad5fa30d7fcd50:DefaultSpriteLayer",
				},
				SphereCollider = 
				{
					bool Ghost = true,
					bool SendsMessages = true,
					bool Seamless = true,
					string MaterialName = "4de020863e872da8:DefaultPhysicsMaterial",
					string SerializedGroupName = "4e740859314e5515:DefaultGroup",
					Vec3 Offset = [0, 0, 0],
					float Radius = 0.5,
				},
			},
		},
	},
	Cog = 
	{
		LinkId = 
		{
			uint Id = 65,
		},
		Named = 
		{
			string Name = "ExplosionPlayer",
		},
		Transform = 
		{
			Vec3 Translation = [0, 0, 0],
			Vec3 Scale = [1, 1, 1],
			Quat Rotation = [0, 0, 0, 1],
		},
		SoundEmitter = 
		{
			bool StartPlaying = false,
			int ExtraPriority = 0,
			string CueName = "4e1bd44008b4dc2a:DefaultCue",
			float Volume = 1,
			float Pitch = 1,
			bool Positional = false,
		},
	},
	ArchetypeInstance = 
	{
		string Name = "5426926934861757:BlastObstacle",
		LinkId = 
		{
			uint Id = 66,
		},
		Transform = 
		{
			Vec3 Translation = [19, 0, 0],
			Vec3 Scale = [1, 1, 1],
			Quat Rotation = [0, 0, 0, 1],
		},
		Named = 
		{
			string Name = "BlastObstacle",
		},
	},
	ArchetypeInstance = 
	{
		string Name = "547a9b8770e9032c:RiotShieldEnemy",
		LinkId = 
		{
			uint Id = 67,
		},
		Transform = 
		{
			Vec3 Translation = [-45, 0.5, -0.5],
			Vec3 Scale = [1.5, 1.5, 1],
			Quat Rotation = [0, 0, 0, 1],
		},
		Named = 
		{
			string Name = "RiotShieldEnemy",
		},
	},
	ArchetypeInstance = 
	{
		string Name = "546e736136d5e62f:Player",
		LinkId = 
		{
			uint Id = 68,
		},
		Transform = 
		{
			Vec3 Translation = [-55.5, 0, 0],
			Vec3 Scale = [1, 1, 1],
			Quat Rotation = [0, 0, 0, 1],
		},
		Named = 
		{
			string Name = "Player",
		},
	},
},
