Cog = 
{
	LinkId = 
	{
		uint Id = 1,
	},
	Named = 
	{
		string Name = "Slash",
	},
	Archetyped = 
	{
		string Name = "54ef46b7a09fc741:Slash",
	},
	Transform = 
	{
		Vec3 Translation = [-12.5674, 8.13802, 0],
		Vec3 Scale = [1, 2, 1],
		Quat Rotation = [0, 0, 0, 1],
	},
	BoxCollider = 
	{
		bool Ghost = true,
		bool SendsMessages = true,
		bool Seamless = true,
		string MaterialName = "4de020863e872da8:DefaultPhysicsMaterial",
		string SerializedGroupName = "4e740859314e5515:DefaultGroup",
		Vec3 Offset = [0, 0, 0],
		Vec3 Size = [0.5, 0.5, 0.5],
	},
	RigidBody = 
	{
		bool Static = false,
		bool Asleep = false,
		bool Kinematic = true,
		bool RotationLocked = false,
		bool Mode2D = true,
		bool AllowSleep = true,
		bool Inherit2DMode = true,
		Vec3 Velocity = [0, 0, 0],
		Vec3 AngularVelocity = [0, 0, 0],
	},
	SlashLogic = 
	{
	},
	Sprite = 
	{
		string SpriteSource = "5275aa4d802dd6dc:Square",
		bool FlipX = false,
		bool FlipY = false,
		Vec4 Color = [0.395, 0.83665, 1, 0.5],
		bool Visible = true,
		bool OnTop = false,
		bool AnimationActive = true,
		float AnimationSpeed = 1,
		uint StartFrame = 0,
		BlendMode BlendMode = Alpha,
		SpriteGeometryMode GeometryMode = ZPlane,
		string SpriteLayer = "52ad5fa30d7fcd50:DefaultSpriteLayer",
	},
	HitBox = 
	{
	},
},
