{
  "images": [

    {
      "name": "chargeBooth",
      "texture": "ReChargeStation",
      "pixelsPerUnit": 512,
      "dimensions": { "x": 1024, "y": 1024 },
      "uv": [
        { "x": 0.0, "y": 0.0 },
        { "x": 1, "y": 1 }
      ],
      "hasGlow": true
    }
  ]
}
