{
  "images": [

    {
      "name": "laser_hazard",
      "texture": "laser_hazard",
      "pixelsPerUnit": 256,
      "dimensions": { "x": 64, "y": 320 },
      "uv": [
        { "x": 0.0, "y": 0.0 },
        { "x": 1, "y": 1 }
      ],
      "hasGlow": true
    }
  ]
}
