{
  "images": [
    {
      "name": "screenWipe",
      "texture": "blackwash",
      "pixelsPerUnit": 128,
      "dimensions": { "x": 2048, "y": 2048 },
      "uv": [
        { "x": 0, "y": 0 },
        { "x": 1, "y": 1 }
      ]
    }
    
  ]
}
